^E:\EYEGAME\EYEGAME\MAIN.CPP
E:\EYEGAME\EYEGAME\MAINGAME.H
E:\EYEGAME\GAMESENGINE\WINDOW.H
E:\EYEGAME\DEPENDENCIES\INCLUDE\SDL\SDL.H
E:\EYEGAME\DEPENDENCIES\INCLUDE\SDL\SDL_MAIN.H
E:\EYEGAME\DEPENDENCIES\INCLUDE\SDL\SDL_STDINC.H
E:\EYEGAME\DEPENDENCIES\INCLUDE\SDL\SDL_CONFIG.H
E:\EYEGAME\DEPENDENCIES\INCLUDE\SDL\SDL_PLATFORM.H
C:\PROGRAM FILES (X86)\WINDOWS KITS\8.1\INCLUDE\SHARED\WINAPIFAMILY.H
E:\EYEGAME\DEPENDENCIES\INCLUDE\SDL\BEGIN_CODE.H
E:\EYEGAME\DEPENDENCIES\INCLUDE\SDL\CLOSE_CODE.H
C:\PROGRAM FILES (X86)\WINDOWS KITS\10\INCLUDE\10.0.10150.0\UCRT\STDDEF.H
C:\PROGRAM FILES (X86)\WINDOWS KITS\10\INCLUDE\10.0.10150.0\UCRT\CORECRT.H
C:\PROGRAM FILES (X86)\MICROSOFT VISUAL STUDIO 14.0\VC\INCLUDE\VCRUNTIME.H
C:\PROGRAM FILES (X86)\MICROSOFT VISUAL STUDIO 14.0\VC\INCLUDE\SAL.H
C:\PROGRAM FILES (X86)\MICROSOFT VISUAL STUDIO 14.0\VC\INCLUDE\CONCURRENCYSAL.H
C:\PROGRAM FILES (X86)\MICROSOFT VISUAL STUDIO 14.0\VC\INCLUDE\VADEFS.H
C:\PROGRAM FILES (X86)\MICROSOFT VISUAL STUDIO 14.0\VC\INCLUDE\STDARG.H
E:\EYEGAME\DEPENDENCIES\INCLUDE\SDL\SDL_ASSERT.H
E:\EYEGAME\DEPENDENCIES\INCLUDE\SDL\SDL_ATOMIC.H
E:\EYEGAME\DEPENDENCIES\INCLUDE\SDL\SDL_AUDIO.H
E:\EYEGAME\DEPENDENCIES\INCLUDE\SDL\SDL_ERROR.H
E:\EYEGAME\DEPENDENCIES\INCLUDE\SDL\SDL_ENDIAN.H
E:\EYEGAME\DEPENDENCIES\INCLUDE\SDL\SDL_MUTEX.H
E:\EYEGAME\DEPENDENCIES\INCLUDE\SDL\SDL_THREAD.H
C:\PROGRAM FILES (X86)\WINDOWS KITS\10\INCLUDE\10.0.10150.0\UCRT\PROCESS.H
C:\PROGRAM FILES (X86)\WINDOWS KITS\10\INCLUDE\10.0.10150.0\UCRT\CORECRT_STARTUP.H
C:\PROGRAM FILES (X86)\WINDOWS KITS\10\INCLUDE\10.0.10150.0\UCRT\MATH.H
C:\PROGRAM FILES (X86)\MICROSOFT VISUAL STUDIO 14.0\VC\INCLUDE\VCRUNTIME_STARTUP.H
C:\PROGRAM FILES (X86)\MICROSOFT VISUAL STUDIO 14.0\VC\INCLUDE\STDBOOL.H
C:\PROGRAM FILES (X86)\WINDOWS KITS\10\INCLUDE\10.0.10150.0\UCRT\CORECRT_WPROCESS.H
E:\EYEGAME\DEPENDENCIES\INCLUDE\SDL\SDL_RWOPS.H
E:\EYEGAME\DEPENDENCIES\INCLUDE\SDL\SDL_CLIPBOARD.H
E:\EYEGAME\DEPENDENCIES\INCLUDE\SDL\SDL_CPUINFO.H
C:\PROGRAM FILES (X86)\MICROSOFT VISUAL STUDIO 14.0\VC\INCLUDE\INTRIN.H
C:\PROGRAM FILES (X86)\MICROSOFT VISUAL STUDIO 14.0\VC\INCLUDE\SETJMP.H
C:\PROGRAM FILES (X86)\MICROSOFT VISUAL STUDIO 14.0\VC\INCLUDE\IMMINTRIN.H
C:\PROGRAM FILES (X86)\MICROSOFT VISUAL STUDIO 14.0\VC\INCLUDE\WMMINTRIN.H
C:\PROGRAM FILES (X86)\MICROSOFT VISUAL STUDIO 14.0\VC\INCLUDE\NMMINTRIN.H
C:\PROGRAM FILES (X86)\MICROSOFT VISUAL STUDIO 14.0\VC\INCLUDE\SMMINTRIN.H
C:\PROGRAM FILES (X86)\MICROSOFT VISUAL STUDIO 14.0\VC\INCLUDE\TMMINTRIN.H
C:\PROGRAM FILES (X86)\MICROSOFT VISUAL STUDIO 14.0\VC\INCLUDE\PMMINTRIN.H
C:\PROGRAM FILES (X86)\MICROSOFT VISUAL STUDIO 14.0\VC\INCLUDE\EMMINTRIN.H
C:\PROGRAM FILES (X86)\MICROSOFT VISUAL STUDIO 14.0\VC\INCLUDE\XMMINTRIN.H
C:\PROGRAM FILES (X86)\MICROSOFT VISUAL STUDIO 14.0\VC\INCLUDE\MMINTRIN.H
C:\PROGRAM FILES (X86)\WINDOWS KITS\10\INCLUDE\10.0.10150.0\UCRT\MALLOC.H
C:\PROGRAM FILES (X86)\WINDOWS KITS\10\INCLUDE\10.0.10150.0\UCRT\CORECRT_MALLOC.H
C:\PROGRAM FILES (X86)\MICROSOFT VISUAL STUDIO 14.0\VC\INCLUDE\AMMINTRIN.H
C:\PROGRAM FILES (X86)\MICROSOFT VISUAL STUDIO 14.0\VC\INCLUDE\MM3DNOW.H
E:\EYEGAME\DEPENDENCIES\INCLUDE\SDL\SDL_EVENTS.H
E:\EYEGAME\DEPENDENCIES\INCLUDE\SDL\SDL_VIDEO.H
E:\EYEGAME\DEPENDENCIES\INCLUDE\SDL\SDL_PIXELS.H
E:\EYEGAME\DEPENDENCIES\INCLUDE\SDL\SDL_RECT.H
E:\EYEGAME\DEPENDENCIES\INCLUDE\SDL\SDL_SURFACE.H
E:\EYEGAME\DEPENDENCIES\INCLUDE\SDL\SDL_BLENDMODE.H
E:\EYEGAME\DEPENDENCIES\INCLUDE\SDL\SDL_KEYBOARD.H
E:\EYEGAME\DEPENDENCIES\INCLUDE\SDL\SDL_KEYCODE.H
E:\EYEGAME\DEPENDENCIES\INCLUDE\SDL\SDL_SCANCODE.H
E:\EYEGAME\DEPENDENCIES\INCLUDE\SDL\SDL_MOUSE.H
E:\EYEGAME\DEPENDENCIES\INCLUDE\SDL\SDL_JOYSTICK.H
E:\EYEGAME\DEPENDENCIES\INCLUDE\SDL\SDL_GAMECONTROLLER.H
E:\EYEGAME\DEPENDENCIES\INCLUDE\SDL\SDL_QUIT.H
E:\EYEGAME\DEPENDENCIES\INCLUDE\SDL\SDL_GESTURE.H
E:\EYEGAME\DEPENDENCIES\INCLUDE\SDL\SDL_TOUCH.H
E:\EYEGAME\DEPENDENCIES\INCLUDE\SDL\SDL_FILESYSTEM.H
E:\EYEGAME\DEPENDENCIES\INCLUDE\SDL\SDL_HAPTIC.H
E:\EYEGAME\DEPENDENCIES\INCLUDE\SDL\SDL_HINTS.H
E:\EYEGAME\DEPENDENCIES\INCLUDE\SDL\SDL_LOADSO.H
E:\EYEGAME\DEPENDENCIES\INCLUDE\SDL\SDL_LOG.H
E:\EYEGAME\DEPENDENCIES\INCLUDE\SDL\SDL_MESSAGEBOX.H
E:\EYEGAME\DEPENDENCIES\INCLUDE\SDL\SDL_POWER.H
E:\EYEGAME\DEPENDENCIES\INCLUDE\SDL\SDL_RENDER.H
E:\EYEGAME\DEPENDENCIES\INCLUDE\SDL\SDL_SYSTEM.H
E:\EYEGAME\DEPENDENCIES\INCLUDE\SDL\SDL_TIMER.H
E:\EYEGAME\DEPENDENCIES\INCLUDE\SDL\SDL_VERSION.H
E:\EYEGAME\DEPENDENCIES\INCLUDE\GL\GLEW.H
C:\PROGRAM FILES (X86)\WINDOWS KITS\8.1\INCLUDE\UM\GL\GLU.H
C:\PROGRAM FILES (X86)\WINDOWS KITS\8.1\INCLUDE\UM\GL\GL.H
C:\PROGRAM FILES (X86)\MICROSOFT VISUAL STUDIO 14.0\VC\INCLUDE\STRING
C:\PROGRAM FILES (X86)\MICROSOFT VISUAL STUDIO 14.0\VC\INCLUDE\ISTREAM
C:\PROGRAM FILES (X86)\MICROSOFT VISUAL STUDIO 14.0\VC\INCLUDE\OSTREAM
C:\PROGRAM FILES (X86)\MICROSOFT VISUAL STUDIO 14.0\VC\INCLUDE\IOS
C:\PROGRAM FILES (X86)\MICROSOFT VISUAL STUDIO 14.0\VC\INCLUDE\XLOCNUM
C:\PROGRAM FILES (X86)\MICROSOFT VISUAL STUDIO 14.0\VC\INCLUDE\CLIMITS
C:\PROGRAM FILES (X86)\MICROSOFT VISUAL STUDIO 14.0\VC\INCLUDE\YVALS.H
C:\PROGRAM FILES (X86)\MICROSOFT VISUAL STUDIO 14.0\VC\INCLUDE\XKEYCHECK.H
C:\PROGRAM FILES (X86)\MICROSOFT VISUAL STUDIO 14.0\VC\INCLUDE\CRTDEFS.H
C:\PROGRAM FILES (X86)\MICROSOFT VISUAL STUDIO 14.0\VC\INCLUDE\USE_ANSI.H
C:\PROGRAM FILES (X86)\MICROSOFT VISUAL STUDIO 14.0\VC\INCLUDE\LIMITS.H
C:\PROGRAM FILES (X86)\MICROSOFT VISUAL STUDIO 14.0\VC\INCLUDE\CMATH
C:\PROGRAM FILES (X86)\MICROSOFT VISUAL STUDIO 14.0\VC\INCLUDE\XTGMATH.H
C:\PROGRAM FILES (X86)\MICROSOFT VISUAL STUDIO 14.0\VC\INCLUDE\XTR1COMMON
C:\PROGRAM FILES (X86)\MICROSOFT VISUAL STUDIO 14.0\VC\INCLUDE\CSTDLIB
C:\PROGRAM FILES (X86)\WINDOWS KITS\10\INCLUDE\10.0.10150.0\UCRT\STDLIB.H
C:\PROGRAM FILES (X86)\WINDOWS KITS\10\INCLUDE\10.0.10150.0\UCRT\CORECRT_SEARCH.H
C:\PROGRAM FILES (X86)\WINDOWS KITS\10\INCLUDE\10.0.10150.0\UCRT\CORECRT_WSTDLIB.H
C:\PROGRAM FILES (X86)\MICROSOFT VISUAL STUDIO 14.0\VC\INCLUDE\CSTDIO
C:\PROGRAM FILES (X86)\WINDOWS KITS\10\INCLUDE\10.0.10150.0\UCRT\STDIO.H
C:\PROGRAM FILES (X86)\WINDOWS KITS\10\INCLUDE\10.0.10150.0\UCRT\CORECRT_WSTDIO.H
C:\PROGRAM FILES (X86)\WINDOWS KITS\10\INCLUDE\10.0.10150.0\UCRT\CORECRT_STDIO_CONFIG.H
C:\PROGRAM FILES (X86)\MICROSOFT VISUAL STUDIO 14.0\VC\INCLUDE\STREAMBUF
C:\PROGRAM FILES (X86)\MICROSOFT VISUAL STUDIO 14.0\VC\INCLUDE\XIOSBASE
C:\PROGRAM FILES (X86)\MICROSOFT VISUAL STUDIO 14.0\VC\INCLUDE\XLOCALE
C:\PROGRAM FILES (X86)\MICROSOFT VISUAL STUDIO 14.0\VC\INCLUDE\CSTRING
C:\PROGRAM FILES (X86)\WINDOWS KITS\10\INCLUDE\10.0.10150.0\UCRT\STRING.H
C:\PROGRAM FILES (X86)\WINDOWS KITS\10\INCLUDE\10.0.10150.0\UCRT\CORECRT_MEMORY.H
C:\PROGRAM FILES (X86)\WINDOWS KITS\10\INCLUDE\10.0.10150.0\UCRT\CORECRT_MEMCPY_S.H
C:\PROGRAM FILES (X86)\WINDOWS KITS\10\INCLUDE\10.0.10150.0\UCRT\ERRNO.H
C:\PROGRAM FILES (X86)\MICROSOFT VISUAL STUDIO 14.0\VC\INCLUDE\VCRUNTIME_STRING.H
C:\PROGRAM FILES (X86)\WINDOWS KITS\10\INCLUDE\10.0.10150.0\UCRT\CORECRT_WSTRING.H
C:\PROGRAM FILES (X86)\MICROSOFT VISUAL STUDIO 14.0\VC\INCLUDE\STDEXCEPT
C:\PROGRAM FILES (X86)\MICROSOFT VISUAL STUDIO 14.0\VC\INCLUDE\EXCEPTION
C:\PROGRAM FILES (X86)\MICROSOFT VISUAL STUDIO 14.0\VC\INCLUDE\TYPE_TRAITS
C:\PROGRAM FILES (X86)\MICROSOFT VISUAL STUDIO 14.0\VC\INCLUDE\XSTDDEF
C:\PROGRAM FILES (X86)\MICROSOFT VISUAL STUDIO 14.0\VC\INCLUDE\CSTDDEF
C:\PROGRAM FILES (X86)\MICROSOFT VISUAL STUDIO 14.0\VC\INCLUDE\INITIALIZER_LIST
C:\PROGRAM FILES (X86)\MICROSOFT VISUAL STUDIO 14.0\VC\INCLUDE\VCRUNTIME_EXCEPTION.H
C:\PROGRAM FILES (X86)\MICROSOFT VISUAL STUDIO 14.0\VC\INCLUDE\EH.H
C:\PROGRAM FILES (X86)\WINDOWS KITS\10\INCLUDE\10.0.10150.0\UCRT\CORECRT_TERMINATE.H
C:\PROGRAM FILES (X86)\MICROSOFT VISUAL STUDIO 14.0\VC\INCLUDE\XSTRING
C:\PROGRAM FILES (X86)\MICROSOFT VISUAL STUDIO 14.0\VC\INCLUDE\XMEMORY0
C:\PROGRAM FILES (X86)\MICROSOFT VISUAL STUDIO 14.0\VC\INCLUDE\CSTDINT
C:\PROGRAM FILES (X86)\MICROSOFT VISUAL STUDIO 14.0\VC\INCLUDE\STDINT.H
C:\PROGRAM FILES (X86)\MICROSOFT VISUAL STUDIO 14.0\VC\INCLUDE\LIMITS
C:\PROGRAM FILES (X86)\MICROSOFT VISUAL STUDIO 14.0\VC\INCLUDE\YMATH.H
C:\PROGRAM FILES (X86)\MICROSOFT VISUAL STUDIO 14.0\VC\INCLUDE\CFLOAT
C:\PROGRAM FILES (X86)\WINDOWS KITS\10\INCLUDE\10.0.10150.0\UCRT\FLOAT.H
C:\PROGRAM FILES (X86)\MICROSOFT VISUAL STUDIO 14.0\VC\INCLUDE\CWCHAR
C:\PROGRAM FILES (X86)\WINDOWS KITS\10\INCLUDE\10.0.10150.0\UCRT\WCHAR.H
C:\PROGRAM FILES (X86)\WINDOWS KITS\10\INCLUDE\10.0.10150.0\UCRT\CORECRT_WCONIO.H
C:\PROGRAM FILES (X86)\WINDOWS KITS\10\INCLUDE\10.0.10150.0\UCRT\CORECRT_WCTYPE.H
C:\PROGRAM FILES (X86)\WINDOWS KITS\10\INCLUDE\10.0.10150.0\UCRT\CORECRT_WDIRECT.H
C:\PROGRAM FILES (X86)\WINDOWS KITS\10\INCLUDE\10.0.10150.0\UCRT\CORECRT_WIO.H
C:\PROGRAM FILES (X86)\WINDOWS KITS\10\INCLUDE\10.0.10150.0\UCRT\CORECRT_SHARE.H
C:\PROGRAM FILES (X86)\WINDOWS KITS\10\INCLUDE\10.0.10150.0\UCRT\CORECRT_WTIME.H
C:\PROGRAM FILES (X86)\WINDOWS KITS\10\INCLUDE\10.0.10150.0\UCRT\SYS\STAT.H
C:\PROGRAM FILES (X86)\WINDOWS KITS\10\INCLUDE\10.0.10150.0\UCRT\SYS\TYPES.H
C:\PROGRAM FILES (X86)\MICROSOFT VISUAL STUDIO 14.0\VC\INCLUDE\NEW
C:\PROGRAM FILES (X86)\MICROSOFT VISUAL STUDIO 14.0\VC\INCLUDE\VCRUNTIME_NEW.H
C:\PROGRAM FILES (X86)\MICROSOFT VISUAL STUDIO 14.0\VC\INCLUDE\XUTILITY
C:\PROGRAM FILES (X86)\MICROSOFT VISUAL STUDIO 14.0\VC\INCLUDE\UTILITY
C:\PROGRAM FILES (X86)\MICROSOFT VISUAL STUDIO 14.0\VC\INCLUDE\IOSFWD
C:\PROGRAM FILES (X86)\WINDOWS KITS\10\INCLUDE\10.0.10150.0\UCRT\CRTDBG.H
C:\PROGRAM FILES (X86)\MICROSOFT VISUAL STUDIO 14.0\VC\INCLUDE\VCRUNTIME_NEW_DEBUG.H
C:\PROGRAM FILES (X86)\MICROSOFT VISUAL STUDIO 14.0\VC\INCLUDE\XATOMIC0.H
C:\PROGRAM FILES (X86)\MICROSOFT VISUAL STUDIO 14.0\VC\INCLUDE\TYPEINFO
C:\PROGRAM FILES (X86)\MICROSOFT VISUAL STUDIO 14.0\VC\INCLUDE\VCRUNTIME_TYPEINFO.H
C:\PROGRAM FILES (X86)\MICROSOFT VISUAL STUDIO 14.0\VC\INCLUDE\XLOCINFO
C:\PROGRAM FILES (X86)\MICROSOFT VISUAL STUDIO 14.0\VC\INCLUDE\XLOCINFO.H
C:\PROGRAM FILES (X86)\WINDOWS KITS\10\INCLUDE\10.0.10150.0\UCRT\CTYPE.H
C:\PROGRAM FILES (X86)\WINDOWS KITS\10\INCLUDE\10.0.10150.0\UCRT\LOCALE.H
C:\PROGRAM FILES (X86)\MICROSOFT VISUAL STUDIO 14.0\VC\INCLUDE\XFACET
C:\PROGRAM FILES (X86)\MICROSOFT VISUAL STUDIO 14.0\VC\INCLUDE\SYSTEM_ERROR
C:\PROGRAM FILES (X86)\MICROSOFT VISUAL STUDIO 14.0\VC\INCLUDE\CERRNO
C:\PROGRAM FILES (X86)\WINDOWS KITS\10\INCLUDE\10.0.10150.0\UCRT\SHARE.H
E:\EYEGAME\GAMESENGINE\GLSLPROGRAM.H
E:\EYEGAME\GAMESENGINE\INPUTMANAGER.H
C:\PROGRAM FILES (X86)\MICROSOFT VISUAL STUDIO 14.0\VC\INCLUDE\UNORDERED_MAP
C:\PROGRAM FILES (X86)\MICROSOFT VISUAL STUDIO 14.0\VC\INCLUDE\XHASH
C:\PROGRAM FILES (X86)\MICROSOFT VISUAL STUDIO 14.0\VC\INCLUDE\LIST
C:\PROGRAM FILES (X86)\MICROSOFT VISUAL STUDIO 14.0\VC\INCLUDE\XMEMORY
C:\PROGRAM FILES (X86)\MICROSOFT VISUAL STUDIO 14.0\VC\INCLUDE\VECTOR
C:\PROGRAM FILES (X86)\MICROSOFT VISUAL STUDIO 14.0\VC\INCLUDE\TUPLE
E:\EYEGAME\DEPENDENCIES\INCLUDE\GLM\GLM.HPP
E:\EYEGAME\DEPENDENCIES\INCLUDE\GLM\DETAIL\_FIXES.HPP
C:\PROGRAM FILES (X86)\MICROSOFT VISUAL STUDIO 14.0\VC\INCLUDE\CASSERT
C:\PROGRAM FILES (X86)\WINDOWS KITS\10\INCLUDE\10.0.10150.0\UCRT\ASSERT.H
E:\EYEGAME\DEPENDENCIES\INCLUDE\GLM\FWD.HPP
E:\EYEGAME\DEPENDENCIES\INCLUDE\GLM\DETAIL\TYPE_INT.HPP
E:\EYEGAME\DEPENDENCIES\INCLUDE\GLM\DETAIL\SETUP.HPP
E:\EYEGAME\DEPENDENCIES\INCLUDE\GLM\DETAIL\TYPE_FLOAT.HPP
E:\EYEGAME\DEPENDENCIES\INCLUDE\GLM\DETAIL\TYPE_VEC.HPP
E:\EYEGAME\DEPENDENCIES\INCLUDE\GLM\DETAIL\PRECISION.HPP
E:\EYEGAME\DEPENDENCIES\INCLUDE\GLM\DETAIL\TYPE_MAT.HPP
E:\EYEGAME\DEPENDENCIES\INCLUDE\GLM\VEC2.HPP
E:\EYEGAME\DEPENDENCIES\INCLUDE\GLM\DETAIL\TYPE_VEC2.HPP
E:\EYEGAME\DEPENDENCIES\INCLUDE\GLM\DETAIL\TYPE_VEC2.INL
E:\EYEGAME\DEPENDENCIES\INCLUDE\GLM\VEC3.HPP
E:\EYEGAME\DEPENDENCIES\INCLUDE\GLM\DETAIL\TYPE_VEC3.HPP
E:\EYEGAME\DEPENDENCIES\INCLUDE\GLM\DETAIL\TYPE_VEC3.INL
E:\EYEGAME\DEPENDENCIES\INCLUDE\GLM\VEC4.HPP
E:\EYEGAME\DEPENDENCIES\INCLUDE\GLM\DETAIL\TYPE_VEC4.HPP
E:\EYEGAME\DEPENDENCIES\INCLUDE\GLM\DETAIL\TYPE_VEC4.INL
E:\EYEGAME\DEPENDENCIES\INCLUDE\GLM\DETAIL\TYPE_VEC4_SSE2.INL
E:\EYEGAME\DEPENDENCIES\INCLUDE\GLM\MAT2X2.HPP
E:\EYEGAME\DEPENDENCIES\INCLUDE\GLM\DETAIL\TYPE_MAT2X2.HPP
E:\EYEGAME\DEPENDENCIES\INCLUDE\GLM\DETAIL\TYPE_MAT2X2.INL
E:\EYEGAME\DEPENDENCIES\INCLUDE\GLM\MAT2X3.HPP
E:\EYEGAME\DEPENDENCIES\INCLUDE\GLM\DETAIL\TYPE_MAT2X3.HPP
E:\EYEGAME\DEPENDENCIES\INCLUDE\GLM\DETAIL\TYPE_MAT2X3.INL
E:\EYEGAME\DEPENDENCIES\INCLUDE\GLM\MAT2X4.HPP
E:\EYEGAME\DEPENDENCIES\INCLUDE\GLM\DETAIL\TYPE_MAT2X4.HPP
E:\EYEGAME\DEPENDENCIES\INCLUDE\GLM\DETAIL\TYPE_MAT2X4.INL
E:\EYEGAME\DEPENDENCIES\INCLUDE\GLM\MAT3X2.HPP
E:\EYEGAME\DEPENDENCIES\INCLUDE\GLM\DETAIL\TYPE_MAT3X2.HPP
E:\EYEGAME\DEPENDENCIES\INCLUDE\GLM\DETAIL\TYPE_MAT3X2.INL
E:\EYEGAME\DEPENDENCIES\INCLUDE\GLM\MAT3X3.HPP
E:\EYEGAME\DEPENDENCIES\INCLUDE\GLM\DETAIL\TYPE_MAT3X3.HPP
E:\EYEGAME\DEPENDENCIES\INCLUDE\GLM\DETAIL\TYPE_MAT3X3.INL
E:\EYEGAME\DEPENDENCIES\INCLUDE\GLM\MAT3X4.HPP
E:\EYEGAME\DEPENDENCIES\INCLUDE\GLM\DETAIL\TYPE_MAT3X4.HPP
E:\EYEGAME\DEPENDENCIES\INCLUDE\GLM\DETAIL\TYPE_MAT3X4.INL
E:\EYEGAME\DEPENDENCIES\INCLUDE\GLM\MAT4X2.HPP
E:\EYEGAME\DEPENDENCIES\INCLUDE\GLM\DETAIL\TYPE_MAT4X2.HPP
E:\EYEGAME\DEPENDENCIES\INCLUDE\GLM\DETAIL\TYPE_MAT4X2.INL
E:\EYEGAME\DEPENDENCIES\INCLUDE\GLM\MAT4X3.HPP
E:\EYEGAME\DEPENDENCIES\INCLUDE\GLM\DETAIL\TYPE_MAT4X3.HPP
E:\EYEGAME\DEPENDENCIES\INCLUDE\GLM\DETAIL\TYPE_MAT4X3.INL
E:\EYEGAME\DEPENDENCIES\INCLUDE\GLM\MAT4X4.HPP
E:\EYEGAME\DEPENDENCIES\INCLUDE\GLM\DETAIL\TYPE_MAT4X4.HPP
E:\EYEGAME\DEPENDENCIES\INCLUDE\GLM\DETAIL\TYPE_MAT4X4.INL
E:\EYEGAME\DEPENDENCIES\INCLUDE\GLM\TRIGONOMETRIC.HPP
E:\EYEGAME\DEPENDENCIES\INCLUDE\GLM\DETAIL\FUNC_TRIGONOMETRIC.HPP
E:\EYEGAME\DEPENDENCIES\INCLUDE\GLM\DETAIL\FUNC_TRIGONOMETRIC.INL
E:\EYEGAME\DEPENDENCIES\INCLUDE\GLM\DETAIL\_VECTORIZE.HPP
E:\EYEGAME\DEPENDENCIES\INCLUDE\GLM\DETAIL\TYPE_VEC1.HPP
E:\EYEGAME\DEPENDENCIES\INCLUDE\GLM\DETAIL\TYPE_VEC1.INL
E:\EYEGAME\DEPENDENCIES\INCLUDE\GLM\EXPONENTIAL.HPP
E:\EYEGAME\DEPENDENCIES\INCLUDE\GLM\DETAIL\FUNC_EXPONENTIAL.HPP
E:\EYEGAME\DEPENDENCIES\INCLUDE\GLM\DETAIL\FUNC_EXPONENTIAL.INL
E:\EYEGAME\DEPENDENCIES\INCLUDE\GLM\DETAIL\FUNC_VECTOR_RELATIONAL.HPP
E:\EYEGAME\DEPENDENCIES\INCLUDE\GLM\DETAIL\FUNC_VECTOR_RELATIONAL.INL
E:\EYEGAME\DEPENDENCIES\INCLUDE\GLM\COMMON.HPP
E:\EYEGAME\DEPENDENCIES\INCLUDE\GLM\DETAIL\FUNC_COMMON.HPP
E:\EYEGAME\DEPENDENCIES\INCLUDE\GLM\DETAIL\FUNC_COMMON.INL
E:\EYEGAME\DEPENDENCIES\INCLUDE\GLM\PACKING.HPP
E:\EYEGAME\DEPENDENCIES\INCLUDE\GLM\DETAIL\FUNC_PACKING.HPP
E:\EYEGAME\DEPENDENCIES\INCLUDE\GLM\DETAIL\FUNC_PACKING.INL
E:\EYEGAME\DEPENDENCIES\INCLUDE\GLM\DETAIL\TYPE_HALF.HPP
E:\EYEGAME\DEPENDENCIES\INCLUDE\GLM\DETAIL\TYPE_HALF.INL
E:\EYEGAME\DEPENDENCIES\INCLUDE\GLM\GEOMETRIC.HPP
E:\EYEGAME\DEPENDENCIES\INCLUDE\GLM\DETAIL\FUNC_GEOMETRIC.HPP
E:\EYEGAME\DEPENDENCIES\INCLUDE\GLM\DETAIL\FUNC_GEOMETRIC.INL
E:\EYEGAME\DEPENDENCIES\INCLUDE\GLM\MATRIX.HPP
E:\EYEGAME\DEPENDENCIES\INCLUDE\GLM\DETAIL\FUNC_MATRIX.HPP
E:\EYEGAME\DEPENDENCIES\INCLUDE\GLM\DETAIL\FUNC_MATRIX.INL
E:\EYEGAME\DEPENDENCIES\INCLUDE\GLM\VECTOR_RELATIONAL.HPP
E:\EYEGAME\DEPENDENCIES\INCLUDE\GLM\INTEGER.HPP
E:\EYEGAME\DEPENDENCIES\INCLUDE\GLM\DETAIL\FUNC_INTEGER.HPP
E:\EYEGAME\DEPENDENCIES\INCLUDE\GLM\DETAIL\FUNC_INTEGER.INL
E:\EYEGAME\GAMESENGINE\SPRITEBATCH.H
E:\EYEGAME\GAMESENGINE\VERTEX.H
E:\EYEGAME\GAMESENGINE\CAMERA2D.H
E:\EYEGAME\DEPENDENCIES\INCLUDE\GLM\GTC\MATRIX_TRANSFORM.HPP
E:\EYEGAME\DEPENDENCIES\INCLUDE\GLM\GTC\CONSTANTS.HPP
E:\EYEGAME\DEPENDENCIES\INCLUDE\GLM\GTC\CONSTANTS.INL
E:\EYEGAME\DEPENDENCIES\INCLUDE\GLM\GTC\MATRIX_TRANSFORM.INL
E:\EYEGAME\GAMESENGINE\EYETRACKER.H
C:\PROGRAM FILES (X86)\MICROSOFT VISUAL STUDIO 14.0\VC\INCLUDE\IOSTREAM
E:\EYEGAME\DEPENDENCIES\INCLUDE\EYETRIBE\GAZEAPI.H
E:\EYEGAME\DEPENDENCIES\INCLUDE\EYETRIBE\GAZEAPI_TYPES.H
E:\EYEGAME\DEPENDENCIES\INCLUDE\EYETRIBE\GAZEAPI_INTERFACES.H
C:\PROGRAM FILES (X86)\MICROSOFT VISUAL STUDIO 14.0\VC\INCLUDE\MEMORY
E:\EYEGAME\EYEGAME\PLAYER.H
E:\EYEGAME\EYEGAME\GAMEITEM.H
E:\EYEGAME\EYEGAME\GAMEOBJECT.H
^E:\EYEGAME\EYEGAME\PLAYER.CPP
E:\EYEGAME\EYEGAME\PLAYER.H
E:\EYEGAME\GAMESENGINE\EYETRACKER.H
C:\PROGRAM FILES (X86)\MICROSOFT VISUAL STUDIO 14.0\VC\INCLUDE\IOSTREAM
C:\PROGRAM FILES (X86)\MICROSOFT VISUAL STUDIO 14.0\VC\INCLUDE\ISTREAM
C:\PROGRAM FILES (X86)\MICROSOFT VISUAL STUDIO 14.0\VC\INCLUDE\OSTREAM
C:\PROGRAM FILES (X86)\MICROSOFT VISUAL STUDIO 14.0\VC\INCLUDE\IOS
C:\PROGRAM FILES (X86)\MICROSOFT VISUAL STUDIO 14.0\VC\INCLUDE\XLOCNUM
C:\PROGRAM FILES (X86)\MICROSOFT VISUAL STUDIO 14.0\VC\INCLUDE\CLIMITS
C:\PROGRAM FILES (X86)\MICROSOFT VISUAL STUDIO 14.0\VC\INCLUDE\YVALS.H
C:\PROGRAM FILES (X86)\MICROSOFT VISUAL STUDIO 14.0\VC\INCLUDE\XKEYCHECK.H
C:\PROGRAM FILES (X86)\MICROSOFT VISUAL STUDIO 14.0\VC\INCLUDE\CRTDEFS.H
C:\PROGRAM FILES (X86)\MICROSOFT VISUAL STUDIO 14.0\VC\INCLUDE\VCRUNTIME.H
C:\PROGRAM FILES (X86)\MICROSOFT VISUAL STUDIO 14.0\VC\INCLUDE\SAL.H
C:\PROGRAM FILES (X86)\MICROSOFT VISUAL STUDIO 14.0\VC\INCLUDE\CONCURRENCYSAL.H
C:\PROGRAM FILES (X86)\MICROSOFT VISUAL STUDIO 14.0\VC\INCLUDE\VADEFS.H
C:\PROGRAM FILES (X86)\WINDOWS KITS\10\INCLUDE\10.0.10150.0\UCRT\CORECRT.H
C:\PROGRAM FILES (X86)\MICROSOFT VISUAL STUDIO 14.0\VC\INCLUDE\USE_ANSI.H
C:\PROGRAM FILES (X86)\MICROSOFT VISUAL STUDIO 14.0\VC\INCLUDE\LIMITS.H
C:\PROGRAM FILES (X86)\MICROSOFT VISUAL STUDIO 14.0\VC\INCLUDE\CMATH
C:\PROGRAM FILES (X86)\WINDOWS KITS\10\INCLUDE\10.0.10150.0\UCRT\MATH.H
C:\PROGRAM FILES (X86)\MICROSOFT VISUAL STUDIO 14.0\VC\INCLUDE\XTGMATH.H
C:\PROGRAM FILES (X86)\MICROSOFT VISUAL STUDIO 14.0\VC\INCLUDE\XTR1COMMON
C:\PROGRAM FILES (X86)\MICROSOFT VISUAL STUDIO 14.0\VC\INCLUDE\CSTDLIB
C:\PROGRAM FILES (X86)\WINDOWS KITS\10\INCLUDE\10.0.10150.0\UCRT\STDLIB.H
C:\PROGRAM FILES (X86)\WINDOWS KITS\10\INCLUDE\10.0.10150.0\UCRT\CORECRT_MALLOC.H
C:\PROGRAM FILES (X86)\WINDOWS KITS\10\INCLUDE\10.0.10150.0\UCRT\CORECRT_SEARCH.H
C:\PROGRAM FILES (X86)\WINDOWS KITS\10\INCLUDE\10.0.10150.0\UCRT\STDDEF.H
C:\PROGRAM FILES (X86)\WINDOWS KITS\10\INCLUDE\10.0.10150.0\UCRT\CORECRT_WSTDLIB.H
C:\PROGRAM FILES (X86)\MICROSOFT VISUAL STUDIO 14.0\VC\INCLUDE\CSTDIO
C:\PROGRAM FILES (X86)\WINDOWS KITS\10\INCLUDE\10.0.10150.0\UCRT\STDIO.H
C:\PROGRAM FILES (X86)\WINDOWS KITS\10\INCLUDE\10.0.10150.0\UCRT\CORECRT_WSTDIO.H
C:\PROGRAM FILES (X86)\WINDOWS KITS\10\INCLUDE\10.0.10150.0\UCRT\CORECRT_STDIO_CONFIG.H
C:\PROGRAM FILES (X86)\MICROSOFT VISUAL STUDIO 14.0\VC\INCLUDE\STREAMBUF
C:\PROGRAM FILES (X86)\MICROSOFT VISUAL STUDIO 14.0\VC\INCLUDE\XIOSBASE
C:\PROGRAM FILES (X86)\MICROSOFT VISUAL STUDIO 14.0\VC\INCLUDE\XLOCALE
C:\PROGRAM FILES (X86)\MICROSOFT VISUAL STUDIO 14.0\VC\INCLUDE\CSTRING
C:\PROGRAM FILES (X86)\WINDOWS KITS\10\INCLUDE\10.0.10150.0\UCRT\STRING.H
C:\PROGRAM FILES (X86)\WINDOWS KITS\10\INCLUDE\10.0.10150.0\UCRT\CORECRT_MEMORY.H
C:\PROGRAM FILES (X86)\WINDOWS KITS\10\INCLUDE\10.0.10150.0\UCRT\CORECRT_MEMCPY_S.H
C:\PROGRAM FILES (X86)\WINDOWS KITS\10\INCLUDE\10.0.10150.0\UCRT\ERRNO.H
C:\PROGRAM FILES (X86)\MICROSOFT VISUAL STUDIO 14.0\VC\INCLUDE\VCRUNTIME_STRING.H
C:\PROGRAM FILES (X86)\WINDOWS KITS\10\INCLUDE\10.0.10150.0\UCRT\CORECRT_WSTRING.H
C:\PROGRAM FILES (X86)\MICROSOFT VISUAL STUDIO 14.0\VC\INCLUDE\STDEXCEPT
C:\PROGRAM FILES (X86)\MICROSOFT VISUAL STUDIO 14.0\VC\INCLUDE\EXCEPTION
C:\PROGRAM FILES (X86)\MICROSOFT VISUAL STUDIO 14.0\VC\INCLUDE\TYPE_TRAITS
C:\PROGRAM FILES (X86)\MICROSOFT VISUAL STUDIO 14.0\VC\INCLUDE\XSTDDEF
C:\PROGRAM FILES (X86)\MICROSOFT VISUAL STUDIO 14.0\VC\INCLUDE\CSTDDEF
C:\PROGRAM FILES (X86)\MICROSOFT VISUAL STUDIO 14.0\VC\INCLUDE\INITIALIZER_LIST
C:\PROGRAM FILES (X86)\WINDOWS KITS\10\INCLUDE\10.0.10150.0\UCRT\MALLOC.H
C:\PROGRAM FILES (X86)\MICROSOFT VISUAL STUDIO 14.0\VC\INCLUDE\VCRUNTIME_EXCEPTION.H
C:\PROGRAM FILES (X86)\MICROSOFT VISUAL STUDIO 14.0\VC\INCLUDE\EH.H
C:\PROGRAM FILES (X86)\WINDOWS KITS\10\INCLUDE\10.0.10150.0\UCRT\CORECRT_TERMINATE.H
C:\PROGRAM FILES (X86)\MICROSOFT VISUAL STUDIO 14.0\VC\INCLUDE\XSTRING
C:\PROGRAM FILES (X86)\MICROSOFT VISUAL STUDIO 14.0\VC\INCLUDE\XMEMORY0
C:\PROGRAM FILES (X86)\MICROSOFT VISUAL STUDIO 14.0\VC\INCLUDE\CSTDINT
C:\PROGRAM FILES (X86)\MICROSOFT VISUAL STUDIO 14.0\VC\INCLUDE\STDINT.H
C:\PROGRAM FILES (X86)\MICROSOFT VISUAL STUDIO 14.0\VC\INCLUDE\LIMITS
C:\PROGRAM FILES (X86)\MICROSOFT VISUAL STUDIO 14.0\VC\INCLUDE\YMATH.H
C:\PROGRAM FILES (X86)\MICROSOFT VISUAL STUDIO 14.0\VC\INCLUDE\CFLOAT
C:\PROGRAM FILES (X86)\WINDOWS KITS\10\INCLUDE\10.0.10150.0\UCRT\FLOAT.H
C:\PROGRAM FILES (X86)\MICROSOFT VISUAL STUDIO 14.0\VC\INCLUDE\CWCHAR
C:\PROGRAM FILES (X86)\WINDOWS KITS\10\INCLUDE\10.0.10150.0\UCRT\WCHAR.H
C:\PROGRAM FILES (X86)\WINDOWS KITS\10\INCLUDE\10.0.10150.0\UCRT\CORECRT_WCONIO.H
C:\PROGRAM FILES (X86)\WINDOWS KITS\10\INCLUDE\10.0.10150.0\UCRT\CORECRT_WCTYPE.H
C:\PROGRAM FILES (X86)\WINDOWS KITS\10\INCLUDE\10.0.10150.0\UCRT\CORECRT_WDIRECT.H
C:\PROGRAM FILES (X86)\WINDOWS KITS\10\INCLUDE\10.0.10150.0\UCRT\CORECRT_WIO.H
C:\PROGRAM FILES (X86)\WINDOWS KITS\10\INCLUDE\10.0.10150.0\UCRT\CORECRT_SHARE.H
C:\PROGRAM FILES (X86)\WINDOWS KITS\10\INCLUDE\10.0.10150.0\UCRT\CORECRT_WPROCESS.H
C:\PROGRAM FILES (X86)\WINDOWS KITS\10\INCLUDE\10.0.10150.0\UCRT\CORECRT_WTIME.H
C:\PROGRAM FILES (X86)\WINDOWS KITS\10\INCLUDE\10.0.10150.0\UCRT\SYS\STAT.H
C:\PROGRAM FILES (X86)\WINDOWS KITS\10\INCLUDE\10.0.10150.0\UCRT\SYS\TYPES.H
C:\PROGRAM FILES (X86)\MICROSOFT VISUAL STUDIO 14.0\VC\INCLUDE\NEW
C:\PROGRAM FILES (X86)\MICROSOFT VISUAL STUDIO 14.0\VC\INCLUDE\VCRUNTIME_NEW.H
C:\PROGRAM FILES (X86)\MICROSOFT VISUAL STUDIO 14.0\VC\INCLUDE\XUTILITY
C:\PROGRAM FILES (X86)\MICROSOFT VISUAL STUDIO 14.0\VC\INCLUDE\UTILITY
C:\PROGRAM FILES (X86)\MICROSOFT VISUAL STUDIO 14.0\VC\INCLUDE\IOSFWD
C:\PROGRAM FILES (X86)\WINDOWS KITS\10\INCLUDE\10.0.10150.0\UCRT\CRTDBG.H
C:\PROGRAM FILES (X86)\MICROSOFT VISUAL STUDIO 14.0\VC\INCLUDE\VCRUNTIME_NEW_DEBUG.H
C:\PROGRAM FILES (X86)\MICROSOFT VISUAL STUDIO 14.0\VC\INCLUDE\XATOMIC0.H
C:\PROGRAM FILES (X86)\MICROSOFT VISUAL STUDIO 14.0\VC\INCLUDE\INTRIN.H
C:\PROGRAM FILES (X86)\MICROSOFT VISUAL STUDIO 14.0\VC\INCLUDE\SETJMP.H
C:\PROGRAM FILES (X86)\MICROSOFT VISUAL STUDIO 14.0\VC\INCLUDE\IMMINTRIN.H
C:\PROGRAM FILES (X86)\MICROSOFT VISUAL STUDIO 14.0\VC\INCLUDE\WMMINTRIN.H
C:\PROGRAM FILES (X86)\MICROSOFT VISUAL STUDIO 14.0\VC\INCLUDE\NMMINTRIN.H
C:\PROGRAM FILES (X86)\MICROSOFT VISUAL STUDIO 14.0\VC\INCLUDE\SMMINTRIN.H
C:\PROGRAM FILES (X86)\MICROSOFT VISUAL STUDIO 14.0\VC\INCLUDE\TMMINTRIN.H
C:\PROGRAM FILES (X86)\MICROSOFT VISUAL STUDIO 14.0\VC\INCLUDE\PMMINTRIN.H
C:\PROGRAM FILES (X86)\MICROSOFT VISUAL STUDIO 14.0\VC\INCLUDE\EMMINTRIN.H
C:\PROGRAM FILES (X86)\MICROSOFT VISUAL STUDIO 14.0\VC\INCLUDE\XMMINTRIN.H
C:\PROGRAM FILES (X86)\MICROSOFT VISUAL STUDIO 14.0\VC\INCLUDE\MMINTRIN.H
C:\PROGRAM FILES (X86)\MICROSOFT VISUAL STUDIO 14.0\VC\INCLUDE\AMMINTRIN.H
C:\PROGRAM FILES (X86)\MICROSOFT VISUAL STUDIO 14.0\VC\INCLUDE\MM3DNOW.H
C:\PROGRAM FILES (X86)\MICROSOFT VISUAL STUDIO 14.0\VC\INCLUDE\TYPEINFO
C:\PROGRAM FILES (X86)\MICROSOFT VISUAL STUDIO 14.0\VC\INCLUDE\VCRUNTIME_TYPEINFO.H
C:\PROGRAM FILES (X86)\MICROSOFT VISUAL STUDIO 14.0\VC\INCLUDE\XLOCINFO
C:\PROGRAM FILES (X86)\MICROSOFT VISUAL STUDIO 14.0\VC\INCLUDE\XLOCINFO.H
C:\PROGRAM FILES (X86)\WINDOWS KITS\10\INCLUDE\10.0.10150.0\UCRT\CTYPE.H
C:\PROGRAM FILES (X86)\WINDOWS KITS\10\INCLUDE\10.0.10150.0\UCRT\LOCALE.H
C:\PROGRAM FILES (X86)\MICROSOFT VISUAL STUDIO 14.0\VC\INCLUDE\XFACET
C:\PROGRAM FILES (X86)\MICROSOFT VISUAL STUDIO 14.0\VC\INCLUDE\SYSTEM_ERROR
C:\PROGRAM FILES (X86)\MICROSOFT VISUAL STUDIO 14.0\VC\INCLUDE\CERRNO
C:\PROGRAM FILES (X86)\WINDOWS KITS\10\INCLUDE\10.0.10150.0\UCRT\SHARE.H
E:\EYEGAME\DEPENDENCIES\INCLUDE\EYETRIBE\GAZEAPI.H
E:\EYEGAME\DEPENDENCIES\INCLUDE\EYETRIBE\GAZEAPI_TYPES.H
C:\PROGRAM FILES (X86)\MICROSOFT VISUAL STUDIO 14.0\VC\INCLUDE\VECTOR
C:\PROGRAM FILES (X86)\MICROSOFT VISUAL STUDIO 14.0\VC\INCLUDE\XMEMORY
E:\EYEGAME\DEPENDENCIES\INCLUDE\EYETRIBE\GAZEAPI_INTERFACES.H
C:\PROGRAM FILES (X86)\MICROSOFT VISUAL STUDIO 14.0\VC\INCLUDE\MEMORY
C:\PROGRAM FILES (X86)\MICROSOFT VISUAL STUDIO 14.0\VC\INCLUDE\STRING
E:\EYEGAME\DEPENDENCIES\INCLUDE\GLM\GLM.HPP
E:\EYEGAME\DEPENDENCIES\INCLUDE\GLM\DETAIL\_FIXES.HPP
C:\PROGRAM FILES (X86)\MICROSOFT VISUAL STUDIO 14.0\VC\INCLUDE\CASSERT
C:\PROGRAM FILES (X86)\WINDOWS KITS\10\INCLUDE\10.0.10150.0\UCRT\ASSERT.H
E:\EYEGAME\DEPENDENCIES\INCLUDE\GLM\FWD.HPP
E:\EYEGAME\DEPENDENCIES\INCLUDE\GLM\DETAIL\TYPE_INT.HPP
E:\EYEGAME\DEPENDENCIES\INCLUDE\GLM\DETAIL\SETUP.HPP
E:\EYEGAME\DEPENDENCIES\INCLUDE\GLM\DETAIL\TYPE_FLOAT.HPP
E:\EYEGAME\DEPENDENCIES\INCLUDE\GLM\DETAIL\TYPE_VEC.HPP
E:\EYEGAME\DEPENDENCIES\INCLUDE\GLM\DETAIL\PRECISION.HPP
E:\EYEGAME\DEPENDENCIES\INCLUDE\GLM\DETAIL\TYPE_MAT.HPP
E:\EYEGAME\DEPENDENCIES\INCLUDE\GLM\VEC2.HPP
E:\EYEGAME\DEPENDENCIES\INCLUDE\GLM\DETAIL\TYPE_VEC2.HPP
E:\EYEGAME\DEPENDENCIES\INCLUDE\GLM\DETAIL\TYPE_VEC2.INL
E:\EYEGAME\DEPENDENCIES\INCLUDE\GLM\VEC3.HPP
E:\EYEGAME\DEPENDENCIES\INCLUDE\GLM\DETAIL\TYPE_VEC3.HPP
E:\EYEGAME\DEPENDENCIES\INCLUDE\GLM\DETAIL\TYPE_VEC3.INL
E:\EYEGAME\DEPENDENCIES\INCLUDE\GLM\VEC4.HPP
E:\EYEGAME\DEPENDENCIES\INCLUDE\GLM\DETAIL\TYPE_VEC4.HPP
E:\EYEGAME\DEPENDENCIES\INCLUDE\GLM\DETAIL\TYPE_VEC4.INL
E:\EYEGAME\DEPENDENCIES\INCLUDE\GLM\DETAIL\TYPE_VEC4_SSE2.INL
E:\EYEGAME\DEPENDENCIES\INCLUDE\GLM\MAT2X2.HPP
E:\EYEGAME\DEPENDENCIES\INCLUDE\GLM\DETAIL\TYPE_MAT2X2.HPP
E:\EYEGAME\DEPENDENCIES\INCLUDE\GLM\DETAIL\TYPE_MAT2X2.INL
E:\EYEGAME\DEPENDENCIES\INCLUDE\GLM\MAT2X3.HPP
E:\EYEGAME\DEPENDENCIES\INCLUDE\GLM\DETAIL\TYPE_MAT2X3.HPP
E:\EYEGAME\DEPENDENCIES\INCLUDE\GLM\DETAIL\TYPE_MAT2X3.INL
E:\EYEGAME\DEPENDENCIES\INCLUDE\GLM\MAT2X4.HPP
E:\EYEGAME\DEPENDENCIES\INCLUDE\GLM\DETAIL\TYPE_MAT2X4.HPP
E:\EYEGAME\DEPENDENCIES\INCLUDE\GLM\DETAIL\TYPE_MAT2X4.INL
E:\EYEGAME\DEPENDENCIES\INCLUDE\GLM\MAT3X2.HPP
E:\EYEGAME\DEPENDENCIES\INCLUDE\GLM\DETAIL\TYPE_MAT3X2.HPP
E:\EYEGAME\DEPENDENCIES\INCLUDE\GLM\DETAIL\TYPE_MAT3X2.INL
E:\EYEGAME\DEPENDENCIES\INCLUDE\GLM\MAT3X3.HPP
E:\EYEGAME\DEPENDENCIES\INCLUDE\GLM\DETAIL\TYPE_MAT3X3.HPP
E:\EYEGAME\DEPENDENCIES\INCLUDE\GLM\DETAIL\TYPE_MAT3X3.INL
E:\EYEGAME\DEPENDENCIES\INCLUDE\GLM\MAT3X4.HPP
E:\EYEGAME\DEPENDENCIES\INCLUDE\GLM\DETAIL\TYPE_MAT3X4.HPP
E:\EYEGAME\DEPENDENCIES\INCLUDE\GLM\DETAIL\TYPE_MAT3X4.INL
E:\EYEGAME\DEPENDENCIES\INCLUDE\GLM\MAT4X2.HPP
E:\EYEGAME\DEPENDENCIES\INCLUDE\GLM\DETAIL\TYPE_MAT4X2.HPP
E:\EYEGAME\DEPENDENCIES\INCLUDE\GLM\DETAIL\TYPE_MAT4X2.INL
E:\EYEGAME\DEPENDENCIES\INCLUDE\GLM\MAT4X3.HPP
E:\EYEGAME\DEPENDENCIES\INCLUDE\GLM\DETAIL\TYPE_MAT4X3.HPP
E:\EYEGAME\DEPENDENCIES\INCLUDE\GLM\DETAIL\TYPE_MAT4X3.INL
E:\EYEGAME\DEPENDENCIES\INCLUDE\GLM\MAT4X4.HPP
E:\EYEGAME\DEPENDENCIES\INCLUDE\GLM\DETAIL\TYPE_MAT4X4.HPP
E:\EYEGAME\DEPENDENCIES\INCLUDE\GLM\DETAIL\TYPE_MAT4X4.INL
E:\EYEGAME\DEPENDENCIES\INCLUDE\GLM\TRIGONOMETRIC.HPP
E:\EYEGAME\DEPENDENCIES\INCLUDE\GLM\DETAIL\FUNC_TRIGONOMETRIC.HPP
E:\EYEGAME\DEPENDENCIES\INCLUDE\GLM\DETAIL\FUNC_TRIGONOMETRIC.INL
E:\EYEGAME\DEPENDENCIES\INCLUDE\GLM\DETAIL\_VECTORIZE.HPP
E:\EYEGAME\DEPENDENCIES\INCLUDE\GLM\DETAIL\TYPE_VEC1.HPP
E:\EYEGAME\DEPENDENCIES\INCLUDE\GLM\DETAIL\TYPE_VEC1.INL
E:\EYEGAME\DEPENDENCIES\INCLUDE\GLM\EXPONENTIAL.HPP
E:\EYEGAME\DEPENDENCIES\INCLUDE\GLM\DETAIL\FUNC_EXPONENTIAL.HPP
E:\EYEGAME\DEPENDENCIES\INCLUDE\GLM\DETAIL\FUNC_EXPONENTIAL.INL
E:\EYEGAME\DEPENDENCIES\INCLUDE\GLM\DETAIL\FUNC_VECTOR_RELATIONAL.HPP
E:\EYEGAME\DEPENDENCIES\INCLUDE\GLM\DETAIL\FUNC_VECTOR_RELATIONAL.INL
E:\EYEGAME\DEPENDENCIES\INCLUDE\GLM\COMMON.HPP
E:\EYEGAME\DEPENDENCIES\INCLUDE\GLM\DETAIL\FUNC_COMMON.HPP
E:\EYEGAME\DEPENDENCIES\INCLUDE\GLM\DETAIL\FUNC_COMMON.INL
E:\EYEGAME\DEPENDENCIES\INCLUDE\GLM\PACKING.HPP
E:\EYEGAME\DEPENDENCIES\INCLUDE\GLM\DETAIL\FUNC_PACKING.HPP
E:\EYEGAME\DEPENDENCIES\INCLUDE\GLM\DETAIL\FUNC_PACKING.INL
E:\EYEGAME\DEPENDENCIES\INCLUDE\GLM\DETAIL\TYPE_HALF.HPP
E:\EYEGAME\DEPENDENCIES\INCLUDE\GLM\DETAIL\TYPE_HALF.INL
E:\EYEGAME\DEPENDENCIES\INCLUDE\GLM\GEOMETRIC.HPP
E:\EYEGAME\DEPENDENCIES\INCLUDE\GLM\DETAIL\FUNC_GEOMETRIC.HPP
E:\EYEGAME\DEPENDENCIES\INCLUDE\GLM\DETAIL\FUNC_GEOMETRIC.INL
E:\EYEGAME\DEPENDENCIES\INCLUDE\GLM\MATRIX.HPP
E:\EYEGAME\DEPENDENCIES\INCLUDE\GLM\DETAIL\FUNC_MATRIX.HPP
E:\EYEGAME\DEPENDENCIES\INCLUDE\GLM\DETAIL\FUNC_MATRIX.INL
E:\EYEGAME\DEPENDENCIES\INCLUDE\GLM\VECTOR_RELATIONAL.HPP
E:\EYEGAME\DEPENDENCIES\INCLUDE\GLM\INTEGER.HPP
E:\EYEGAME\DEPENDENCIES\INCLUDE\GLM\DETAIL\FUNC_INTEGER.HPP
E:\EYEGAME\DEPENDENCIES\INCLUDE\GLM\DETAIL\FUNC_INTEGER.INL
E:\EYEGAME\GAMESENGINE\INPUTMANAGER.H
C:\PROGRAM FILES (X86)\MICROSOFT VISUAL STUDIO 14.0\VC\INCLUDE\UNORDERED_MAP
C:\PROGRAM FILES (X86)\MICROSOFT VISUAL STUDIO 14.0\VC\INCLUDE\XHASH
C:\PROGRAM FILES (X86)\MICROSOFT VISUAL STUDIO 14.0\VC\INCLUDE\LIST
C:\PROGRAM FILES (X86)\MICROSOFT VISUAL STUDIO 14.0\VC\INCLUDE\TUPLE
E:\EYEGAME\EYEGAME\GAMEITEM.H
E:\EYEGAME\EYEGAME\GAMEOBJECT.H
E:\EYEGAME\GAMESENGINE\SPRITEBATCH.H
E:\EYEGAME\DEPENDENCIES\INCLUDE\GL\GLEW.H
C:\PROGRAM FILES (X86)\WINDOWS KITS\8.1\INCLUDE\UM\GL\GLU.H
C:\PROGRAM FILES (X86)\WINDOWS KITS\8.1\INCLUDE\SHARED\WINAPIFAMILY.H
C:\PROGRAM FILES (X86)\WINDOWS KITS\8.1\INCLUDE\UM\GL\GL.H
E:\EYEGAME\GAMESENGINE\VERTEX.H
E:\EYEGAME\DEPENDENCIES\INCLUDE\SDL\SDL.H
E:\EYEGAME\DEPENDENCIES\INCLUDE\SDL\SDL_MAIN.H
E:\EYEGAME\DEPENDENCIES\INCLUDE\SDL\SDL_STDINC.H
E:\EYEGAME\DEPENDENCIES\INCLUDE\SDL\SDL_CONFIG.H
E:\EYEGAME\DEPENDENCIES\INCLUDE\SDL\SDL_PLATFORM.H
E:\EYEGAME\DEPENDENCIES\INCLUDE\SDL\BEGIN_CODE.H
E:\EYEGAME\DEPENDENCIES\INCLUDE\SDL\CLOSE_CODE.H
C:\PROGRAM FILES (X86)\MICROSOFT VISUAL STUDIO 14.0\VC\INCLUDE\STDARG.H
E:\EYEGAME\DEPENDENCIES\INCLUDE\SDL\SDL_ASSERT.H
E:\EYEGAME\DEPENDENCIES\INCLUDE\SDL\SDL_ATOMIC.H
E:\EYEGAME\DEPENDENCIES\INCLUDE\SDL\SDL_AUDIO.H
E:\EYEGAME\DEPENDENCIES\INCLUDE\SDL\SDL_ERROR.H
E:\EYEGAME\DEPENDENCIES\INCLUDE\SDL\SDL_ENDIAN.H
E:\EYEGAME\DEPENDENCIES\INCLUDE\SDL\SDL_MUTEX.H
E:\EYEGAME\DEPENDENCIES\INCLUDE\SDL\SDL_THREAD.H
C:\PROGRAM FILES (X86)\WINDOWS KITS\10\INCLUDE\10.0.10150.0\UCRT\PROCESS.H
C:\PROGRAM FILES (X86)\WINDOWS KITS\10\INCLUDE\10.0.10150.0\UCRT\CORECRT_STARTUP.H
C:\PROGRAM FILES (X86)\MICROSOFT VISUAL STUDIO 14.0\VC\INCLUDE\VCRUNTIME_STARTUP.H
C:\PROGRAM FILES (X86)\MICROSOFT VISUAL STUDIO 14.0\VC\INCLUDE\STDBOOL.H
E:\EYEGAME\DEPENDENCIES\INCLUDE\SDL\SDL_RWOPS.H
E:\EYEGAME\DEPENDENCIES\INCLUDE\SDL\SDL_CLIPBOARD.H
E:\EYEGAME\DEPENDENCIES\INCLUDE\SDL\SDL_CPUINFO.H
E:\EYEGAME\DEPENDENCIES\INCLUDE\SDL\SDL_EVENTS.H
E:\EYEGAME\DEPENDENCIES\INCLUDE\SDL\SDL_VIDEO.H
E:\EYEGAME\DEPENDENCIES\INCLUDE\SDL\SDL_PIXELS.H
E:\EYEGAME\DEPENDENCIES\INCLUDE\SDL\SDL_RECT.H
E:\EYEGAME\DEPENDENCIES\INCLUDE\SDL\SDL_SURFACE.H
E:\EYEGAME\DEPENDENCIES\INCLUDE\SDL\SDL_BLENDMODE.H
E:\EYEGAME\DEPENDENCIES\INCLUDE\SDL\SDL_KEYBOARD.H
E:\EYEGAME\DEPENDENCIES\INCLUDE\SDL\SDL_KEYCODE.H
E:\EYEGAME\DEPENDENCIES\INCLUDE\SDL\SDL_SCANCODE.H
E:\EYEGAME\DEPENDENCIES\INCLUDE\SDL\SDL_MOUSE.H
E:\EYEGAME\DEPENDENCIES\INCLUDE\SDL\SDL_JOYSTICK.H
E:\EYEGAME\DEPENDENCIES\INCLUDE\SDL\SDL_GAMECONTROLLER.H
E:\EYEGAME\DEPENDENCIES\INCLUDE\SDL\SDL_QUIT.H
E:\EYEGAME\DEPENDENCIES\INCLUDE\SDL\SDL_GESTURE.H
E:\EYEGAME\DEPENDENCIES\INCLUDE\SDL\SDL_TOUCH.H
E:\EYEGAME\DEPENDENCIES\INCLUDE\SDL\SDL_FILESYSTEM.H
E:\EYEGAME\DEPENDENCIES\INCLUDE\SDL\SDL_HAPTIC.H
E:\EYEGAME\DEPENDENCIES\INCLUDE\SDL\SDL_HINTS.H
E:\EYEGAME\DEPENDENCIES\INCLUDE\SDL\SDL_LOADSO.H
E:\EYEGAME\DEPENDENCIES\INCLUDE\SDL\SDL_LOG.H
E:\EYEGAME\DEPENDENCIES\INCLUDE\SDL\SDL_MESSAGEBOX.H
E:\EYEGAME\DEPENDENCIES\INCLUDE\SDL\SDL_POWER.H
E:\EYEGAME\DEPENDENCIES\INCLUDE\SDL\SDL_RENDER.H
E:\EYEGAME\DEPENDENCIES\INCLUDE\SDL\SDL_SYSTEM.H
E:\EYEGAME\DEPENDENCIES\INCLUDE\SDL\SDL_TIMER.H
E:\EYEGAME\DEPENDENCIES\INCLUDE\SDL\SDL_VERSION.H
^E:\EYEGAME\EYEGAME\MAINGAME.CPP
E:\EYEGAME\EYEGAME\MAINGAME.H
E:\EYEGAME\GAMESENGINE\WINDOW.H
E:\EYEGAME\DEPENDENCIES\INCLUDE\SDL\SDL.H
E:\EYEGAME\DEPENDENCIES\INCLUDE\SDL\SDL_MAIN.H
E:\EYEGAME\DEPENDENCIES\INCLUDE\SDL\SDL_STDINC.H
E:\EYEGAME\DEPENDENCIES\INCLUDE\SDL\SDL_CONFIG.H
E:\EYEGAME\DEPENDENCIES\INCLUDE\SDL\SDL_PLATFORM.H
C:\PROGRAM FILES (X86)\WINDOWS KITS\8.1\INCLUDE\SHARED\WINAPIFAMILY.H
E:\EYEGAME\DEPENDENCIES\INCLUDE\SDL\BEGIN_CODE.H
E:\EYEGAME\DEPENDENCIES\INCLUDE\SDL\CLOSE_CODE.H
C:\PROGRAM FILES (X86)\WINDOWS KITS\10\INCLUDE\10.0.10150.0\UCRT\STDDEF.H
C:\PROGRAM FILES (X86)\WINDOWS KITS\10\INCLUDE\10.0.10150.0\UCRT\CORECRT.H
C:\PROGRAM FILES (X86)\MICROSOFT VISUAL STUDIO 14.0\VC\INCLUDE\VCRUNTIME.H
C:\PROGRAM FILES (X86)\MICROSOFT VISUAL STUDIO 14.0\VC\INCLUDE\SAL.H
C:\PROGRAM FILES (X86)\MICROSOFT VISUAL STUDIO 14.0\VC\INCLUDE\CONCURRENCYSAL.H
C:\PROGRAM FILES (X86)\MICROSOFT VISUAL STUDIO 14.0\VC\INCLUDE\VADEFS.H
C:\PROGRAM FILES (X86)\MICROSOFT VISUAL STUDIO 14.0\VC\INCLUDE\STDARG.H
E:\EYEGAME\DEPENDENCIES\INCLUDE\SDL\SDL_ASSERT.H
E:\EYEGAME\DEPENDENCIES\INCLUDE\SDL\SDL_ATOMIC.H
E:\EYEGAME\DEPENDENCIES\INCLUDE\SDL\SDL_AUDIO.H
E:\EYEGAME\DEPENDENCIES\INCLUDE\SDL\SDL_ERROR.H
E:\EYEGAME\DEPENDENCIES\INCLUDE\SDL\SDL_ENDIAN.H
E:\EYEGAME\DEPENDENCIES\INCLUDE\SDL\SDL_MUTEX.H
E:\EYEGAME\DEPENDENCIES\INCLUDE\SDL\SDL_THREAD.H
C:\PROGRAM FILES (X86)\WINDOWS KITS\10\INCLUDE\10.0.10150.0\UCRT\PROCESS.H
C:\PROGRAM FILES (X86)\WINDOWS KITS\10\INCLUDE\10.0.10150.0\UCRT\CORECRT_STARTUP.H
C:\PROGRAM FILES (X86)\WINDOWS KITS\10\INCLUDE\10.0.10150.0\UCRT\MATH.H
C:\PROGRAM FILES (X86)\MICROSOFT VISUAL STUDIO 14.0\VC\INCLUDE\VCRUNTIME_STARTUP.H
C:\PROGRAM FILES (X86)\MICROSOFT VISUAL STUDIO 14.0\VC\INCLUDE\STDBOOL.H
C:\PROGRAM FILES (X86)\WINDOWS KITS\10\INCLUDE\10.0.10150.0\UCRT\CORECRT_WPROCESS.H
E:\EYEGAME\DEPENDENCIES\INCLUDE\SDL\SDL_RWOPS.H
E:\EYEGAME\DEPENDENCIES\INCLUDE\SDL\SDL_CLIPBOARD.H
E:\EYEGAME\DEPENDENCIES\INCLUDE\SDL\SDL_CPUINFO.H
C:\PROGRAM FILES (X86)\MICROSOFT VISUAL STUDIO 14.0\VC\INCLUDE\INTRIN.H
C:\PROGRAM FILES (X86)\MICROSOFT VISUAL STUDIO 14.0\VC\INCLUDE\SETJMP.H
C:\PROGRAM FILES (X86)\MICROSOFT VISUAL STUDIO 14.0\VC\INCLUDE\IMMINTRIN.H
C:\PROGRAM FILES (X86)\MICROSOFT VISUAL STUDIO 14.0\VC\INCLUDE\WMMINTRIN.H
C:\PROGRAM FILES (X86)\MICROSOFT VISUAL STUDIO 14.0\VC\INCLUDE\NMMINTRIN.H
C:\PROGRAM FILES (X86)\MICROSOFT VISUAL STUDIO 14.0\VC\INCLUDE\SMMINTRIN.H
C:\PROGRAM FILES (X86)\MICROSOFT VISUAL STUDIO 14.0\VC\INCLUDE\TMMINTRIN.H
C:\PROGRAM FILES (X86)\MICROSOFT VISUAL STUDIO 14.0\VC\INCLUDE\PMMINTRIN.H
C:\PROGRAM FILES (X86)\MICROSOFT VISUAL STUDIO 14.0\VC\INCLUDE\EMMINTRIN.H
C:\PROGRAM FILES (X86)\MICROSOFT VISUAL STUDIO 14.0\VC\INCLUDE\XMMINTRIN.H
C:\PROGRAM FILES (X86)\MICROSOFT VISUAL STUDIO 14.0\VC\INCLUDE\MMINTRIN.H
C:\PROGRAM FILES (X86)\WINDOWS KITS\10\INCLUDE\10.0.10150.0\UCRT\MALLOC.H
C:\PROGRAM FILES (X86)\WINDOWS KITS\10\INCLUDE\10.0.10150.0\UCRT\CORECRT_MALLOC.H
C:\PROGRAM FILES (X86)\MICROSOFT VISUAL STUDIO 14.0\VC\INCLUDE\AMMINTRIN.H
C:\PROGRAM FILES (X86)\MICROSOFT VISUAL STUDIO 14.0\VC\INCLUDE\MM3DNOW.H
E:\EYEGAME\DEPENDENCIES\INCLUDE\SDL\SDL_EVENTS.H
E:\EYEGAME\DEPENDENCIES\INCLUDE\SDL\SDL_VIDEO.H
E:\EYEGAME\DEPENDENCIES\INCLUDE\SDL\SDL_PIXELS.H
E:\EYEGAME\DEPENDENCIES\INCLUDE\SDL\SDL_RECT.H
E:\EYEGAME\DEPENDENCIES\INCLUDE\SDL\SDL_SURFACE.H
E:\EYEGAME\DEPENDENCIES\INCLUDE\SDL\SDL_BLENDMODE.H
E:\EYEGAME\DEPENDENCIES\INCLUDE\SDL\SDL_KEYBOARD.H
E:\EYEGAME\DEPENDENCIES\INCLUDE\SDL\SDL_KEYCODE.H
E:\EYEGAME\DEPENDENCIES\INCLUDE\SDL\SDL_SCANCODE.H
E:\EYEGAME\DEPENDENCIES\INCLUDE\SDL\SDL_MOUSE.H
E:\EYEGAME\DEPENDENCIES\INCLUDE\SDL\SDL_JOYSTICK.H
E:\EYEGAME\DEPENDENCIES\INCLUDE\SDL\SDL_GAMECONTROLLER.H
E:\EYEGAME\DEPENDENCIES\INCLUDE\SDL\SDL_QUIT.H
E:\EYEGAME\DEPENDENCIES\INCLUDE\SDL\SDL_GESTURE.H
E:\EYEGAME\DEPENDENCIES\INCLUDE\SDL\SDL_TOUCH.H
E:\EYEGAME\DEPENDENCIES\INCLUDE\SDL\SDL_FILESYSTEM.H
E:\EYEGAME\DEPENDENCIES\INCLUDE\SDL\SDL_HAPTIC.H
E:\EYEGAME\DEPENDENCIES\INCLUDE\SDL\SDL_HINTS.H
E:\EYEGAME\DEPENDENCIES\INCLUDE\SDL\SDL_LOADSO.H
E:\EYEGAME\DEPENDENCIES\INCLUDE\SDL\SDL_LOG.H
E:\EYEGAME\DEPENDENCIES\INCLUDE\SDL\SDL_MESSAGEBOX.H
E:\EYEGAME\DEPENDENCIES\INCLUDE\SDL\SDL_POWER.H
E:\EYEGAME\DEPENDENCIES\INCLUDE\SDL\SDL_RENDER.H
E:\EYEGAME\DEPENDENCIES\INCLUDE\SDL\SDL_SYSTEM.H
E:\EYEGAME\DEPENDENCIES\INCLUDE\SDL\SDL_TIMER.H
E:\EYEGAME\DEPENDENCIES\INCLUDE\SDL\SDL_VERSION.H
E:\EYEGAME\DEPENDENCIES\INCLUDE\GL\GLEW.H
C:\PROGRAM FILES (X86)\WINDOWS KITS\8.1\INCLUDE\UM\GL\GLU.H
C:\PROGRAM FILES (X86)\WINDOWS KITS\8.1\INCLUDE\UM\GL\GL.H
C:\PROGRAM FILES (X86)\MICROSOFT VISUAL STUDIO 14.0\VC\INCLUDE\STRING
C:\PROGRAM FILES (X86)\MICROSOFT VISUAL STUDIO 14.0\VC\INCLUDE\ISTREAM
C:\PROGRAM FILES (X86)\MICROSOFT VISUAL STUDIO 14.0\VC\INCLUDE\OSTREAM
C:\PROGRAM FILES (X86)\MICROSOFT VISUAL STUDIO 14.0\VC\INCLUDE\IOS
C:\PROGRAM FILES (X86)\MICROSOFT VISUAL STUDIO 14.0\VC\INCLUDE\XLOCNUM
C:\PROGRAM FILES (X86)\MICROSOFT VISUAL STUDIO 14.0\VC\INCLUDE\CLIMITS
C:\PROGRAM FILES (X86)\MICROSOFT VISUAL STUDIO 14.0\VC\INCLUDE\YVALS.H
C:\PROGRAM FILES (X86)\MICROSOFT VISUAL STUDIO 14.0\VC\INCLUDE\XKEYCHECK.H
C:\PROGRAM FILES (X86)\MICROSOFT VISUAL STUDIO 14.0\VC\INCLUDE\CRTDEFS.H
C:\PROGRAM FILES (X86)\MICROSOFT VISUAL STUDIO 14.0\VC\INCLUDE\USE_ANSI.H
C:\PROGRAM FILES (X86)\MICROSOFT VISUAL STUDIO 14.0\VC\INCLUDE\LIMITS.H
C:\PROGRAM FILES (X86)\MICROSOFT VISUAL STUDIO 14.0\VC\INCLUDE\CMATH
C:\PROGRAM FILES (X86)\MICROSOFT VISUAL STUDIO 14.0\VC\INCLUDE\XTGMATH.H
C:\PROGRAM FILES (X86)\MICROSOFT VISUAL STUDIO 14.0\VC\INCLUDE\XTR1COMMON
C:\PROGRAM FILES (X86)\MICROSOFT VISUAL STUDIO 14.0\VC\INCLUDE\CSTDLIB
C:\PROGRAM FILES (X86)\WINDOWS KITS\10\INCLUDE\10.0.10150.0\UCRT\STDLIB.H
C:\PROGRAM FILES (X86)\WINDOWS KITS\10\INCLUDE\10.0.10150.0\UCRT\CORECRT_SEARCH.H
C:\PROGRAM FILES (X86)\WINDOWS KITS\10\INCLUDE\10.0.10150.0\UCRT\CORECRT_WSTDLIB.H
C:\PROGRAM FILES (X86)\MICROSOFT VISUAL STUDIO 14.0\VC\INCLUDE\CSTDIO
C:\PROGRAM FILES (X86)\WINDOWS KITS\10\INCLUDE\10.0.10150.0\UCRT\STDIO.H
C:\PROGRAM FILES (X86)\WINDOWS KITS\10\INCLUDE\10.0.10150.0\UCRT\CORECRT_WSTDIO.H
C:\PROGRAM FILES (X86)\WINDOWS KITS\10\INCLUDE\10.0.10150.0\UCRT\CORECRT_STDIO_CONFIG.H
C:\PROGRAM FILES (X86)\MICROSOFT VISUAL STUDIO 14.0\VC\INCLUDE\STREAMBUF
C:\PROGRAM FILES (X86)\MICROSOFT VISUAL STUDIO 14.0\VC\INCLUDE\XIOSBASE
C:\PROGRAM FILES (X86)\MICROSOFT VISUAL STUDIO 14.0\VC\INCLUDE\XLOCALE
C:\PROGRAM FILES (X86)\MICROSOFT VISUAL STUDIO 14.0\VC\INCLUDE\CSTRING
C:\PROGRAM FILES (X86)\WINDOWS KITS\10\INCLUDE\10.0.10150.0\UCRT\STRING.H
C:\PROGRAM FILES (X86)\WINDOWS KITS\10\INCLUDE\10.0.10150.0\UCRT\CORECRT_MEMORY.H
C:\PROGRAM FILES (X86)\WINDOWS KITS\10\INCLUDE\10.0.10150.0\UCRT\CORECRT_MEMCPY_S.H
C:\PROGRAM FILES (X86)\WINDOWS KITS\10\INCLUDE\10.0.10150.0\UCRT\ERRNO.H
C:\PROGRAM FILES (X86)\MICROSOFT VISUAL STUDIO 14.0\VC\INCLUDE\VCRUNTIME_STRING.H
C:\PROGRAM FILES (X86)\WINDOWS KITS\10\INCLUDE\10.0.10150.0\UCRT\CORECRT_WSTRING.H
C:\PROGRAM FILES (X86)\MICROSOFT VISUAL STUDIO 14.0\VC\INCLUDE\STDEXCEPT
C:\PROGRAM FILES (X86)\MICROSOFT VISUAL STUDIO 14.0\VC\INCLUDE\EXCEPTION
C:\PROGRAM FILES (X86)\MICROSOFT VISUAL STUDIO 14.0\VC\INCLUDE\TYPE_TRAITS
C:\PROGRAM FILES (X86)\MICROSOFT VISUAL STUDIO 14.0\VC\INCLUDE\XSTDDEF
C:\PROGRAM FILES (X86)\MICROSOFT VISUAL STUDIO 14.0\VC\INCLUDE\CSTDDEF
C:\PROGRAM FILES (X86)\MICROSOFT VISUAL STUDIO 14.0\VC\INCLUDE\INITIALIZER_LIST
C:\PROGRAM FILES (X86)\MICROSOFT VISUAL STUDIO 14.0\VC\INCLUDE\VCRUNTIME_EXCEPTION.H
C:\PROGRAM FILES (X86)\MICROSOFT VISUAL STUDIO 14.0\VC\INCLUDE\EH.H
C:\PROGRAM FILES (X86)\WINDOWS KITS\10\INCLUDE\10.0.10150.0\UCRT\CORECRT_TERMINATE.H
C:\PROGRAM FILES (X86)\MICROSOFT VISUAL STUDIO 14.0\VC\INCLUDE\XSTRING
C:\PROGRAM FILES (X86)\MICROSOFT VISUAL STUDIO 14.0\VC\INCLUDE\XMEMORY0
C:\PROGRAM FILES (X86)\MICROSOFT VISUAL STUDIO 14.0\VC\INCLUDE\CSTDINT
C:\PROGRAM FILES (X86)\MICROSOFT VISUAL STUDIO 14.0\VC\INCLUDE\STDINT.H
C:\PROGRAM FILES (X86)\MICROSOFT VISUAL STUDIO 14.0\VC\INCLUDE\LIMITS
C:\PROGRAM FILES (X86)\MICROSOFT VISUAL STUDIO 14.0\VC\INCLUDE\YMATH.H
C:\PROGRAM FILES (X86)\MICROSOFT VISUAL STUDIO 14.0\VC\INCLUDE\CFLOAT
C:\PROGRAM FILES (X86)\WINDOWS KITS\10\INCLUDE\10.0.10150.0\UCRT\FLOAT.H
C:\PROGRAM FILES (X86)\MICROSOFT VISUAL STUDIO 14.0\VC\INCLUDE\CWCHAR
C:\PROGRAM FILES (X86)\WINDOWS KITS\10\INCLUDE\10.0.10150.0\UCRT\WCHAR.H
C:\PROGRAM FILES (X86)\WINDOWS KITS\10\INCLUDE\10.0.10150.0\UCRT\CORECRT_WCONIO.H
C:\PROGRAM FILES (X86)\WINDOWS KITS\10\INCLUDE\10.0.10150.0\UCRT\CORECRT_WCTYPE.H
C:\PROGRAM FILES (X86)\WINDOWS KITS\10\INCLUDE\10.0.10150.0\UCRT\CORECRT_WDIRECT.H
C:\PROGRAM FILES (X86)\WINDOWS KITS\10\INCLUDE\10.0.10150.0\UCRT\CORECRT_WIO.H
C:\PROGRAM FILES (X86)\WINDOWS KITS\10\INCLUDE\10.0.10150.0\UCRT\CORECRT_SHARE.H
C:\PROGRAM FILES (X86)\WINDOWS KITS\10\INCLUDE\10.0.10150.0\UCRT\CORECRT_WTIME.H
C:\PROGRAM FILES (X86)\WINDOWS KITS\10\INCLUDE\10.0.10150.0\UCRT\SYS\STAT.H
C:\PROGRAM FILES (X86)\WINDOWS KITS\10\INCLUDE\10.0.10150.0\UCRT\SYS\TYPES.H
C:\PROGRAM FILES (X86)\MICROSOFT VISUAL STUDIO 14.0\VC\INCLUDE\NEW
C:\PROGRAM FILES (X86)\MICROSOFT VISUAL STUDIO 14.0\VC\INCLUDE\VCRUNTIME_NEW.H
C:\PROGRAM FILES (X86)\MICROSOFT VISUAL STUDIO 14.0\VC\INCLUDE\XUTILITY
C:\PROGRAM FILES (X86)\MICROSOFT VISUAL STUDIO 14.0\VC\INCLUDE\UTILITY
C:\PROGRAM FILES (X86)\MICROSOFT VISUAL STUDIO 14.0\VC\INCLUDE\IOSFWD
C:\PROGRAM FILES (X86)\WINDOWS KITS\10\INCLUDE\10.0.10150.0\UCRT\CRTDBG.H
C:\PROGRAM FILES (X86)\MICROSOFT VISUAL STUDIO 14.0\VC\INCLUDE\VCRUNTIME_NEW_DEBUG.H
C:\PROGRAM FILES (X86)\MICROSOFT VISUAL STUDIO 14.0\VC\INCLUDE\XATOMIC0.H
C:\PROGRAM FILES (X86)\MICROSOFT VISUAL STUDIO 14.0\VC\INCLUDE\TYPEINFO
C:\PROGRAM FILES (X86)\MICROSOFT VISUAL STUDIO 14.0\VC\INCLUDE\VCRUNTIME_TYPEINFO.H
C:\PROGRAM FILES (X86)\MICROSOFT VISUAL STUDIO 14.0\VC\INCLUDE\XLOCINFO
C:\PROGRAM FILES (X86)\MICROSOFT VISUAL STUDIO 14.0\VC\INCLUDE\XLOCINFO.H
C:\PROGRAM FILES (X86)\WINDOWS KITS\10\INCLUDE\10.0.10150.0\UCRT\CTYPE.H
C:\PROGRAM FILES (X86)\WINDOWS KITS\10\INCLUDE\10.0.10150.0\UCRT\LOCALE.H
C:\PROGRAM FILES (X86)\MICROSOFT VISUAL STUDIO 14.0\VC\INCLUDE\XFACET
C:\PROGRAM FILES (X86)\MICROSOFT VISUAL STUDIO 14.0\VC\INCLUDE\SYSTEM_ERROR
C:\PROGRAM FILES (X86)\MICROSOFT VISUAL STUDIO 14.0\VC\INCLUDE\CERRNO
C:\PROGRAM FILES (X86)\WINDOWS KITS\10\INCLUDE\10.0.10150.0\UCRT\SHARE.H
E:\EYEGAME\GAMESENGINE\GLSLPROGRAM.H
E:\EYEGAME\GAMESENGINE\INPUTMANAGER.H
C:\PROGRAM FILES (X86)\MICROSOFT VISUAL STUDIO 14.0\VC\INCLUDE\UNORDERED_MAP
C:\PROGRAM FILES (X86)\MICROSOFT VISUAL STUDIO 14.0\VC\INCLUDE\XHASH
C:\PROGRAM FILES (X86)\MICROSOFT VISUAL STUDIO 14.0\VC\INCLUDE\LIST
C:\PROGRAM FILES (X86)\MICROSOFT VISUAL STUDIO 14.0\VC\INCLUDE\XMEMORY
C:\PROGRAM FILES (X86)\MICROSOFT VISUAL STUDIO 14.0\VC\INCLUDE\VECTOR
C:\PROGRAM FILES (X86)\MICROSOFT VISUAL STUDIO 14.0\VC\INCLUDE\TUPLE
E:\EYEGAME\DEPENDENCIES\INCLUDE\GLM\GLM.HPP
E:\EYEGAME\DEPENDENCIES\INCLUDE\GLM\DETAIL\_FIXES.HPP
C:\PROGRAM FILES (X86)\MICROSOFT VISUAL STUDIO 14.0\VC\INCLUDE\CASSERT
C:\PROGRAM FILES (X86)\WINDOWS KITS\10\INCLUDE\10.0.10150.0\UCRT\ASSERT.H
E:\EYEGAME\DEPENDENCIES\INCLUDE\GLM\FWD.HPP
E:\EYEGAME\DEPENDENCIES\INCLUDE\GLM\DETAIL\TYPE_INT.HPP
E:\EYEGAME\DEPENDENCIES\INCLUDE\GLM\DETAIL\SETUP.HPP
E:\EYEGAME\DEPENDENCIES\INCLUDE\GLM\DETAIL\TYPE_FLOAT.HPP
E:\EYEGAME\DEPENDENCIES\INCLUDE\GLM\DETAIL\TYPE_VEC.HPP
E:\EYEGAME\DEPENDENCIES\INCLUDE\GLM\DETAIL\PRECISION.HPP
E:\EYEGAME\DEPENDENCIES\INCLUDE\GLM\DETAIL\TYPE_MAT.HPP
E:\EYEGAME\DEPENDENCIES\INCLUDE\GLM\VEC2.HPP
E:\EYEGAME\DEPENDENCIES\INCLUDE\GLM\DETAIL\TYPE_VEC2.HPP
E:\EYEGAME\DEPENDENCIES\INCLUDE\GLM\DETAIL\TYPE_VEC2.INL
E:\EYEGAME\DEPENDENCIES\INCLUDE\GLM\VEC3.HPP
E:\EYEGAME\DEPENDENCIES\INCLUDE\GLM\DETAIL\TYPE_VEC3.HPP
E:\EYEGAME\DEPENDENCIES\INCLUDE\GLM\DETAIL\TYPE_VEC3.INL
E:\EYEGAME\DEPENDENCIES\INCLUDE\GLM\VEC4.HPP
E:\EYEGAME\DEPENDENCIES\INCLUDE\GLM\DETAIL\TYPE_VEC4.HPP
E:\EYEGAME\DEPENDENCIES\INCLUDE\GLM\DETAIL\TYPE_VEC4.INL
E:\EYEGAME\DEPENDENCIES\INCLUDE\GLM\DETAIL\TYPE_VEC4_SSE2.INL
E:\EYEGAME\DEPENDENCIES\INCLUDE\GLM\MAT2X2.HPP
E:\EYEGAME\DEPENDENCIES\INCLUDE\GLM\DETAIL\TYPE_MAT2X2.HPP
E:\EYEGAME\DEPENDENCIES\INCLUDE\GLM\DETAIL\TYPE_MAT2X2.INL
E:\EYEGAME\DEPENDENCIES\INCLUDE\GLM\MAT2X3.HPP
E:\EYEGAME\DEPENDENCIES\INCLUDE\GLM\DETAIL\TYPE_MAT2X3.HPP
E:\EYEGAME\DEPENDENCIES\INCLUDE\GLM\DETAIL\TYPE_MAT2X3.INL
E:\EYEGAME\DEPENDENCIES\INCLUDE\GLM\MAT2X4.HPP
E:\EYEGAME\DEPENDENCIES\INCLUDE\GLM\DETAIL\TYPE_MAT2X4.HPP
E:\EYEGAME\DEPENDENCIES\INCLUDE\GLM\DETAIL\TYPE_MAT2X4.INL
E:\EYEGAME\DEPENDENCIES\INCLUDE\GLM\MAT3X2.HPP
E:\EYEGAME\DEPENDENCIES\INCLUDE\GLM\DETAIL\TYPE_MAT3X2.HPP
E:\EYEGAME\DEPENDENCIES\INCLUDE\GLM\DETAIL\TYPE_MAT3X2.INL
E:\EYEGAME\DEPENDENCIES\INCLUDE\GLM\MAT3X3.HPP
E:\EYEGAME\DEPENDENCIES\INCLUDE\GLM\DETAIL\TYPE_MAT3X3.HPP
E:\EYEGAME\DEPENDENCIES\INCLUDE\GLM\DETAIL\TYPE_MAT3X3.INL
E:\EYEGAME\DEPENDENCIES\INCLUDE\GLM\MAT3X4.HPP
E:\EYEGAME\DEPENDENCIES\INCLUDE\GLM\DETAIL\TYPE_MAT3X4.HPP
E:\EYEGAME\DEPENDENCIES\INCLUDE\GLM\DETAIL\TYPE_MAT3X4.INL
E:\EYEGAME\DEPENDENCIES\INCLUDE\GLM\MAT4X2.HPP
E:\EYEGAME\DEPENDENCIES\INCLUDE\GLM\DETAIL\TYPE_MAT4X2.HPP
E:\EYEGAME\DEPENDENCIES\INCLUDE\GLM\DETAIL\TYPE_MAT4X2.INL
E:\EYEGAME\DEPENDENCIES\INCLUDE\GLM\MAT4X3.HPP
E:\EYEGAME\DEPENDENCIES\INCLUDE\GLM\DETAIL\TYPE_MAT4X3.HPP
E:\EYEGAME\DEPENDENCIES\INCLUDE\GLM\DETAIL\TYPE_MAT4X3.INL
E:\EYEGAME\DEPENDENCIES\INCLUDE\GLM\MAT4X4.HPP
E:\EYEGAME\DEPENDENCIES\INCLUDE\GLM\DETAIL\TYPE_MAT4X4.HPP
E:\EYEGAME\DEPENDENCIES\INCLUDE\GLM\DETAIL\TYPE_MAT4X4.INL
E:\EYEGAME\DEPENDENCIES\INCLUDE\GLM\TRIGONOMETRIC.HPP
E:\EYEGAME\DEPENDENCIES\INCLUDE\GLM\DETAIL\FUNC_TRIGONOMETRIC.HPP
E:\EYEGAME\DEPENDENCIES\INCLUDE\GLM\DETAIL\FUNC_TRIGONOMETRIC.INL
E:\EYEGAME\DEPENDENCIES\INCLUDE\GLM\DETAIL\_VECTORIZE.HPP
E:\EYEGAME\DEPENDENCIES\INCLUDE\GLM\DETAIL\TYPE_VEC1.HPP
E:\EYEGAME\DEPENDENCIES\INCLUDE\GLM\DETAIL\TYPE_VEC1.INL
E:\EYEGAME\DEPENDENCIES\INCLUDE\GLM\EXPONENTIAL.HPP
E:\EYEGAME\DEPENDENCIES\INCLUDE\GLM\DETAIL\FUNC_EXPONENTIAL.HPP
E:\EYEGAME\DEPENDENCIES\INCLUDE\GLM\DETAIL\FUNC_EXPONENTIAL.INL
E:\EYEGAME\DEPENDENCIES\INCLUDE\GLM\DETAIL\FUNC_VECTOR_RELATIONAL.HPP
E:\EYEGAME\DEPENDENCIES\INCLUDE\GLM\DETAIL\FUNC_VECTOR_RELATIONAL.INL
E:\EYEGAME\DEPENDENCIES\INCLUDE\GLM\COMMON.HPP
E:\EYEGAME\DEPENDENCIES\INCLUDE\GLM\DETAIL\FUNC_COMMON.HPP
E:\EYEGAME\DEPENDENCIES\INCLUDE\GLM\DETAIL\FUNC_COMMON.INL
E:\EYEGAME\DEPENDENCIES\INCLUDE\GLM\PACKING.HPP
E:\EYEGAME\DEPENDENCIES\INCLUDE\GLM\DETAIL\FUNC_PACKING.HPP
E:\EYEGAME\DEPENDENCIES\INCLUDE\GLM\DETAIL\FUNC_PACKING.INL
E:\EYEGAME\DEPENDENCIES\INCLUDE\GLM\DETAIL\TYPE_HALF.HPP
E:\EYEGAME\DEPENDENCIES\INCLUDE\GLM\DETAIL\TYPE_HALF.INL
E:\EYEGAME\DEPENDENCIES\INCLUDE\GLM\GEOMETRIC.HPP
E:\EYEGAME\DEPENDENCIES\INCLUDE\GLM\DETAIL\FUNC_GEOMETRIC.HPP
E:\EYEGAME\DEPENDENCIES\INCLUDE\GLM\DETAIL\FUNC_GEOMETRIC.INL
E:\EYEGAME\DEPENDENCIES\INCLUDE\GLM\MATRIX.HPP
E:\EYEGAME\DEPENDENCIES\INCLUDE\GLM\DETAIL\FUNC_MATRIX.HPP
E:\EYEGAME\DEPENDENCIES\INCLUDE\GLM\DETAIL\FUNC_MATRIX.INL
E:\EYEGAME\DEPENDENCIES\INCLUDE\GLM\VECTOR_RELATIONAL.HPP
E:\EYEGAME\DEPENDENCIES\INCLUDE\GLM\INTEGER.HPP
E:\EYEGAME\DEPENDENCIES\INCLUDE\GLM\DETAIL\FUNC_INTEGER.HPP
E:\EYEGAME\DEPENDENCIES\INCLUDE\GLM\DETAIL\FUNC_INTEGER.INL
E:\EYEGAME\GAMESENGINE\SPRITEBATCH.H
E:\EYEGAME\GAMESENGINE\VERTEX.H
E:\EYEGAME\GAMESENGINE\CAMERA2D.H
E:\EYEGAME\DEPENDENCIES\INCLUDE\GLM\GTC\MATRIX_TRANSFORM.HPP
E:\EYEGAME\DEPENDENCIES\INCLUDE\GLM\GTC\CONSTANTS.HPP
E:\EYEGAME\DEPENDENCIES\INCLUDE\GLM\GTC\CONSTANTS.INL
E:\EYEGAME\DEPENDENCIES\INCLUDE\GLM\GTC\MATRIX_TRANSFORM.INL
E:\EYEGAME\GAMESENGINE\EYETRACKER.H
C:\PROGRAM FILES (X86)\MICROSOFT VISUAL STUDIO 14.0\VC\INCLUDE\IOSTREAM
E:\EYEGAME\DEPENDENCIES\INCLUDE\EYETRIBE\GAZEAPI.H
E:\EYEGAME\DEPENDENCIES\INCLUDE\EYETRIBE\GAZEAPI_TYPES.H
E:\EYEGAME\DEPENDENCIES\INCLUDE\EYETRIBE\GAZEAPI_INTERFACES.H
C:\PROGRAM FILES (X86)\MICROSOFT VISUAL STUDIO 14.0\VC\INCLUDE\MEMORY
E:\EYEGAME\EYEGAME\PLAYER.H
E:\EYEGAME\EYEGAME\GAMEITEM.H
E:\EYEGAME\EYEGAME\GAMEOBJECT.H
E:\EYEGAME\GAMESENGINE\GAMESENGINE.H
E:\EYEGAME\GAMESENGINE\TIMING.H
C:\PROGRAM FILES (X86)\MICROSOFT VISUAL STUDIO 14.0\VC\INCLUDE\RANDOM
C:\PROGRAM FILES (X86)\MICROSOFT VISUAL STUDIO 14.0\VC\INCLUDE\CTIME
C:\PROGRAM FILES (X86)\WINDOWS KITS\10\INCLUDE\10.0.10150.0\UCRT\TIME.H
^E:\EYEGAME\EYEGAME\GAMEOBJECT.CPP
E:\EYEGAME\EYEGAME\GAMEOBJECT.H
E:\EYEGAME\GAMESENGINE\SPRITEBATCH.H
E:\EYEGAME\DEPENDENCIES\INCLUDE\GL\GLEW.H
C:\PROGRAM FILES (X86)\WINDOWS KITS\8.1\INCLUDE\UM\GL\GLU.H
C:\PROGRAM FILES (X86)\WINDOWS KITS\8.1\INCLUDE\SHARED\WINAPIFAMILY.H
C:\PROGRAM FILES (X86)\WINDOWS KITS\8.1\INCLUDE\UM\GL\GL.H
E:\EYEGAME\GAMESENGINE\VERTEX.H
E:\EYEGAME\DEPENDENCIES\INCLUDE\GLM\GLM.HPP
E:\EYEGAME\DEPENDENCIES\INCLUDE\GLM\DETAIL\_FIXES.HPP
C:\PROGRAM FILES (X86)\MICROSOFT VISUAL STUDIO 14.0\VC\INCLUDE\CMATH
C:\PROGRAM FILES (X86)\MICROSOFT VISUAL STUDIO 14.0\VC\INCLUDE\YVALS.H
C:\PROGRAM FILES (X86)\MICROSOFT VISUAL STUDIO 14.0\VC\INCLUDE\XKEYCHECK.H
C:\PROGRAM FILES (X86)\MICROSOFT VISUAL STUDIO 14.0\VC\INCLUDE\CRTDEFS.H
C:\PROGRAM FILES (X86)\MICROSOFT VISUAL STUDIO 14.0\VC\INCLUDE\VCRUNTIME.H
C:\PROGRAM FILES (X86)\MICROSOFT VISUAL STUDIO 14.0\VC\INCLUDE\SAL.H
C:\PROGRAM FILES (X86)\MICROSOFT VISUAL STUDIO 14.0\VC\INCLUDE\CONCURRENCYSAL.H
C:\PROGRAM FILES (X86)\MICROSOFT VISUAL STUDIO 14.0\VC\INCLUDE\VADEFS.H
C:\PROGRAM FILES (X86)\WINDOWS KITS\10\INCLUDE\10.0.10150.0\UCRT\CORECRT.H
C:\PROGRAM FILES (X86)\MICROSOFT VISUAL STUDIO 14.0\VC\INCLUDE\USE_ANSI.H
C:\PROGRAM FILES (X86)\WINDOWS KITS\10\INCLUDE\10.0.10150.0\UCRT\MATH.H
C:\PROGRAM FILES (X86)\MICROSOFT VISUAL STUDIO 14.0\VC\INCLUDE\XTGMATH.H
C:\PROGRAM FILES (X86)\MICROSOFT VISUAL STUDIO 14.0\VC\INCLUDE\XTR1COMMON
C:\PROGRAM FILES (X86)\MICROSOFT VISUAL STUDIO 14.0\VC\INCLUDE\CSTDLIB
C:\PROGRAM FILES (X86)\WINDOWS KITS\10\INCLUDE\10.0.10150.0\UCRT\STDLIB.H
C:\PROGRAM FILES (X86)\WINDOWS KITS\10\INCLUDE\10.0.10150.0\UCRT\CORECRT_MALLOC.H
C:\PROGRAM FILES (X86)\WINDOWS KITS\10\INCLUDE\10.0.10150.0\UCRT\CORECRT_SEARCH.H
C:\PROGRAM FILES (X86)\WINDOWS KITS\10\INCLUDE\10.0.10150.0\UCRT\STDDEF.H
C:\PROGRAM FILES (X86)\WINDOWS KITS\10\INCLUDE\10.0.10150.0\UCRT\CORECRT_WSTDLIB.H
C:\PROGRAM FILES (X86)\MICROSOFT VISUAL STUDIO 14.0\VC\INCLUDE\LIMITS.H
C:\PROGRAM FILES (X86)\MICROSOFT VISUAL STUDIO 14.0\VC\INCLUDE\CLIMITS
C:\PROGRAM FILES (X86)\MICROSOFT VISUAL STUDIO 14.0\VC\INCLUDE\CFLOAT
C:\PROGRAM FILES (X86)\WINDOWS KITS\10\INCLUDE\10.0.10150.0\UCRT\FLOAT.H
C:\PROGRAM FILES (X86)\MICROSOFT VISUAL STUDIO 14.0\VC\INCLUDE\LIMITS
C:\PROGRAM FILES (X86)\MICROSOFT VISUAL STUDIO 14.0\VC\INCLUDE\YMATH.H
C:\PROGRAM FILES (X86)\MICROSOFT VISUAL STUDIO 14.0\VC\INCLUDE\CWCHAR
C:\PROGRAM FILES (X86)\WINDOWS KITS\10\INCLUDE\10.0.10150.0\UCRT\WCHAR.H
C:\PROGRAM FILES (X86)\WINDOWS KITS\10\INCLUDE\10.0.10150.0\UCRT\CORECRT_MEMCPY_S.H
C:\PROGRAM FILES (X86)\WINDOWS KITS\10\INCLUDE\10.0.10150.0\UCRT\ERRNO.H
C:\PROGRAM FILES (X86)\MICROSOFT VISUAL STUDIO 14.0\VC\INCLUDE\VCRUNTIME_STRING.H
C:\PROGRAM FILES (X86)\WINDOWS KITS\10\INCLUDE\10.0.10150.0\UCRT\CORECRT_WCONIO.H
C:\PROGRAM FILES (X86)\WINDOWS KITS\10\INCLUDE\10.0.10150.0\UCRT\CORECRT_STDIO_CONFIG.H
C:\PROGRAM FILES (X86)\WINDOWS KITS\10\INCLUDE\10.0.10150.0\UCRT\CORECRT_WCTYPE.H
C:\PROGRAM FILES (X86)\WINDOWS KITS\10\INCLUDE\10.0.10150.0\UCRT\CORECRT_WDIRECT.H
C:\PROGRAM FILES (X86)\WINDOWS KITS\10\INCLUDE\10.0.10150.0\UCRT\CORECRT_WIO.H
C:\PROGRAM FILES (X86)\WINDOWS KITS\10\INCLUDE\10.0.10150.0\UCRT\CORECRT_SHARE.H
C:\PROGRAM FILES (X86)\WINDOWS KITS\10\INCLUDE\10.0.10150.0\UCRT\CORECRT_WPROCESS.H
C:\PROGRAM FILES (X86)\WINDOWS KITS\10\INCLUDE\10.0.10150.0\UCRT\CORECRT_WSTDIO.H
C:\PROGRAM FILES (X86)\WINDOWS KITS\10\INCLUDE\10.0.10150.0\UCRT\CORECRT_WSTRING.H
C:\PROGRAM FILES (X86)\WINDOWS KITS\10\INCLUDE\10.0.10150.0\UCRT\CORECRT_WTIME.H
C:\PROGRAM FILES (X86)\WINDOWS KITS\10\INCLUDE\10.0.10150.0\UCRT\SYS\STAT.H
C:\PROGRAM FILES (X86)\WINDOWS KITS\10\INCLUDE\10.0.10150.0\UCRT\SYS\TYPES.H
C:\PROGRAM FILES (X86)\MICROSOFT VISUAL STUDIO 14.0\VC\INCLUDE\XSTDDEF
C:\PROGRAM FILES (X86)\MICROSOFT VISUAL STUDIO 14.0\VC\INCLUDE\CSTDDEF
C:\PROGRAM FILES (X86)\MICROSOFT VISUAL STUDIO 14.0\VC\INCLUDE\INITIALIZER_LIST
C:\PROGRAM FILES (X86)\MICROSOFT VISUAL STUDIO 14.0\VC\INCLUDE\CASSERT
C:\PROGRAM FILES (X86)\WINDOWS KITS\10\INCLUDE\10.0.10150.0\UCRT\ASSERT.H
E:\EYEGAME\DEPENDENCIES\INCLUDE\GLM\FWD.HPP
E:\EYEGAME\DEPENDENCIES\INCLUDE\GLM\DETAIL\TYPE_INT.HPP
E:\EYEGAME\DEPENDENCIES\INCLUDE\GLM\DETAIL\SETUP.HPP
C:\PROGRAM FILES (X86)\MICROSOFT VISUAL STUDIO 14.0\VC\INCLUDE\EMMINTRIN.H
C:\PROGRAM FILES (X86)\MICROSOFT VISUAL STUDIO 14.0\VC\INCLUDE\XMMINTRIN.H
C:\PROGRAM FILES (X86)\MICROSOFT VISUAL STUDIO 14.0\VC\INCLUDE\MMINTRIN.H
C:\PROGRAM FILES (X86)\WINDOWS KITS\10\INCLUDE\10.0.10150.0\UCRT\MALLOC.H
C:\PROGRAM FILES (X86)\MICROSOFT VISUAL STUDIO 14.0\VC\INCLUDE\TYPE_TRAITS
C:\PROGRAM FILES (X86)\MICROSOFT VISUAL STUDIO 14.0\VC\INCLUDE\CSTDINT
C:\PROGRAM FILES (X86)\MICROSOFT VISUAL STUDIO 14.0\VC\INCLUDE\STDINT.H
E:\EYEGAME\DEPENDENCIES\INCLUDE\GLM\DETAIL\TYPE_FLOAT.HPP
E:\EYEGAME\DEPENDENCIES\INCLUDE\GLM\DETAIL\TYPE_VEC.HPP
E:\EYEGAME\DEPENDENCIES\INCLUDE\GLM\DETAIL\PRECISION.HPP
E:\EYEGAME\DEPENDENCIES\INCLUDE\GLM\DETAIL\TYPE_MAT.HPP
E:\EYEGAME\DEPENDENCIES\INCLUDE\GLM\VEC2.HPP
E:\EYEGAME\DEPENDENCIES\INCLUDE\GLM\DETAIL\TYPE_VEC2.HPP
E:\EYEGAME\DEPENDENCIES\INCLUDE\GLM\DETAIL\TYPE_VEC2.INL
E:\EYEGAME\DEPENDENCIES\INCLUDE\GLM\VEC3.HPP
E:\EYEGAME\DEPENDENCIES\INCLUDE\GLM\DETAIL\TYPE_VEC3.HPP
E:\EYEGAME\DEPENDENCIES\INCLUDE\GLM\DETAIL\TYPE_VEC3.INL
E:\EYEGAME\DEPENDENCIES\INCLUDE\GLM\VEC4.HPP
E:\EYEGAME\DEPENDENCIES\INCLUDE\GLM\DETAIL\TYPE_VEC4.HPP
E:\EYEGAME\DEPENDENCIES\INCLUDE\GLM\DETAIL\TYPE_VEC4.INL
E:\EYEGAME\DEPENDENCIES\INCLUDE\GLM\DETAIL\TYPE_VEC4_SSE2.INL
E:\EYEGAME\DEPENDENCIES\INCLUDE\GLM\MAT2X2.HPP
E:\EYEGAME\DEPENDENCIES\INCLUDE\GLM\DETAIL\TYPE_MAT2X2.HPP
E:\EYEGAME\DEPENDENCIES\INCLUDE\GLM\DETAIL\TYPE_MAT2X2.INL
E:\EYEGAME\DEPENDENCIES\INCLUDE\GLM\MAT2X3.HPP
E:\EYEGAME\DEPENDENCIES\INCLUDE\GLM\DETAIL\TYPE_MAT2X3.HPP
E:\EYEGAME\DEPENDENCIES\INCLUDE\GLM\DETAIL\TYPE_MAT2X3.INL
E:\EYEGAME\DEPENDENCIES\INCLUDE\GLM\MAT2X4.HPP
E:\EYEGAME\DEPENDENCIES\INCLUDE\GLM\DETAIL\TYPE_MAT2X4.HPP
E:\EYEGAME\DEPENDENCIES\INCLUDE\GLM\DETAIL\TYPE_MAT2X4.INL
E:\EYEGAME\DEPENDENCIES\INCLUDE\GLM\MAT3X2.HPP
E:\EYEGAME\DEPENDENCIES\INCLUDE\GLM\DETAIL\TYPE_MAT3X2.HPP
E:\EYEGAME\DEPENDENCIES\INCLUDE\GLM\DETAIL\TYPE_MAT3X2.INL
E:\EYEGAME\DEPENDENCIES\INCLUDE\GLM\MAT3X3.HPP
E:\EYEGAME\DEPENDENCIES\INCLUDE\GLM\DETAIL\TYPE_MAT3X3.HPP
E:\EYEGAME\DEPENDENCIES\INCLUDE\GLM\DETAIL\TYPE_MAT3X3.INL
E:\EYEGAME\DEPENDENCIES\INCLUDE\GLM\MAT3X4.HPP
E:\EYEGAME\DEPENDENCIES\INCLUDE\GLM\DETAIL\TYPE_MAT3X4.HPP
E:\EYEGAME\DEPENDENCIES\INCLUDE\GLM\DETAIL\TYPE_MAT3X4.INL
E:\EYEGAME\DEPENDENCIES\INCLUDE\GLM\MAT4X2.HPP
E:\EYEGAME\DEPENDENCIES\INCLUDE\GLM\DETAIL\TYPE_MAT4X2.HPP
E:\EYEGAME\DEPENDENCIES\INCLUDE\GLM\DETAIL\TYPE_MAT4X2.INL
E:\EYEGAME\DEPENDENCIES\INCLUDE\GLM\MAT4X3.HPP
E:\EYEGAME\DEPENDENCIES\INCLUDE\GLM\DETAIL\TYPE_MAT4X3.HPP
E:\EYEGAME\DEPENDENCIES\INCLUDE\GLM\DETAIL\TYPE_MAT4X3.INL
E:\EYEGAME\DEPENDENCIES\INCLUDE\GLM\MAT4X4.HPP
E:\EYEGAME\DEPENDENCIES\INCLUDE\GLM\DETAIL\TYPE_MAT4X4.HPP
E:\EYEGAME\DEPENDENCIES\INCLUDE\GLM\DETAIL\TYPE_MAT4X4.INL
E:\EYEGAME\DEPENDENCIES\INCLUDE\GLM\TRIGONOMETRIC.HPP
E:\EYEGAME\DEPENDENCIES\INCLUDE\GLM\DETAIL\FUNC_TRIGONOMETRIC.HPP
E:\EYEGAME\DEPENDENCIES\INCLUDE\GLM\DETAIL\FUNC_TRIGONOMETRIC.INL
E:\EYEGAME\DEPENDENCIES\INCLUDE\GLM\DETAIL\_VECTORIZE.HPP
E:\EYEGAME\DEPENDENCIES\INCLUDE\GLM\DETAIL\TYPE_VEC1.HPP
E:\EYEGAME\DEPENDENCIES\INCLUDE\GLM\DETAIL\TYPE_VEC1.INL
E:\EYEGAME\DEPENDENCIES\INCLUDE\GLM\EXPONENTIAL.HPP
E:\EYEGAME\DEPENDENCIES\INCLUDE\GLM\DETAIL\FUNC_EXPONENTIAL.HPP
E:\EYEGAME\DEPENDENCIES\INCLUDE\GLM\DETAIL\FUNC_EXPONENTIAL.INL
E:\EYEGAME\DEPENDENCIES\INCLUDE\GLM\DETAIL\FUNC_VECTOR_RELATIONAL.HPP
E:\EYEGAME\DEPENDENCIES\INCLUDE\GLM\DETAIL\FUNC_VECTOR_RELATIONAL.INL
E:\EYEGAME\DEPENDENCIES\INCLUDE\GLM\COMMON.HPP
E:\EYEGAME\DEPENDENCIES\INCLUDE\GLM\DETAIL\FUNC_COMMON.HPP
E:\EYEGAME\DEPENDENCIES\INCLUDE\GLM\DETAIL\FUNC_COMMON.INL
E:\EYEGAME\DEPENDENCIES\INCLUDE\GLM\PACKING.HPP
E:\EYEGAME\DEPENDENCIES\INCLUDE\GLM\DETAIL\FUNC_PACKING.HPP
E:\EYEGAME\DEPENDENCIES\INCLUDE\GLM\DETAIL\FUNC_PACKING.INL
E:\EYEGAME\DEPENDENCIES\INCLUDE\GLM\DETAIL\TYPE_HALF.HPP
E:\EYEGAME\DEPENDENCIES\INCLUDE\GLM\DETAIL\TYPE_HALF.INL
E:\EYEGAME\DEPENDENCIES\INCLUDE\GLM\GEOMETRIC.HPP
E:\EYEGAME\DEPENDENCIES\INCLUDE\GLM\DETAIL\FUNC_GEOMETRIC.HPP
E:\EYEGAME\DEPENDENCIES\INCLUDE\GLM\DETAIL\FUNC_GEOMETRIC.INL
E:\EYEGAME\DEPENDENCIES\INCLUDE\GLM\MATRIX.HPP
E:\EYEGAME\DEPENDENCIES\INCLUDE\GLM\DETAIL\FUNC_MATRIX.HPP
E:\EYEGAME\DEPENDENCIES\INCLUDE\GLM\DETAIL\FUNC_MATRIX.INL
E:\EYEGAME\DEPENDENCIES\INCLUDE\GLM\VECTOR_RELATIONAL.HPP
E:\EYEGAME\DEPENDENCIES\INCLUDE\GLM\INTEGER.HPP
E:\EYEGAME\DEPENDENCIES\INCLUDE\GLM\DETAIL\FUNC_INTEGER.HPP
E:\EYEGAME\DEPENDENCIES\INCLUDE\GLM\DETAIL\FUNC_INTEGER.INL
C:\PROGRAM FILES (X86)\MICROSOFT VISUAL STUDIO 14.0\VC\INCLUDE\INTRIN.H
C:\PROGRAM FILES (X86)\MICROSOFT VISUAL STUDIO 14.0\VC\INCLUDE\SETJMP.H
C:\PROGRAM FILES (X86)\MICROSOFT VISUAL STUDIO 14.0\VC\INCLUDE\IMMINTRIN.H
C:\PROGRAM FILES (X86)\MICROSOFT VISUAL STUDIO 14.0\VC\INCLUDE\WMMINTRIN.H
C:\PROGRAM FILES (X86)\MICROSOFT VISUAL STUDIO 14.0\VC\INCLUDE\NMMINTRIN.H
C:\PROGRAM FILES (X86)\MICROSOFT VISUAL STUDIO 14.0\VC\INCLUDE\SMMINTRIN.H
C:\PROGRAM FILES (X86)\MICROSOFT VISUAL STUDIO 14.0\VC\INCLUDE\TMMINTRIN.H
C:\PROGRAM FILES (X86)\MICROSOFT VISUAL STUDIO 14.0\VC\INCLUDE\PMMINTRIN.H
C:\PROGRAM FILES (X86)\MICROSOFT VISUAL STUDIO 14.0\VC\INCLUDE\AMMINTRIN.H
C:\PROGRAM FILES (X86)\MICROSOFT VISUAL STUDIO 14.0\VC\INCLUDE\MM3DNOW.H
C:\PROGRAM FILES (X86)\MICROSOFT VISUAL STUDIO 14.0\VC\INCLUDE\VECTOR
C:\PROGRAM FILES (X86)\MICROSOFT VISUAL STUDIO 14.0\VC\INCLUDE\XMEMORY
C:\PROGRAM FILES (X86)\MICROSOFT VISUAL STUDIO 14.0\VC\INCLUDE\XMEMORY0
C:\PROGRAM FILES (X86)\MICROSOFT VISUAL STUDIO 14.0\VC\INCLUDE\NEW
C:\PROGRAM FILES (X86)\MICROSOFT VISUAL STUDIO 14.0\VC\INCLUDE\EXCEPTION
C:\PROGRAM FILES (X86)\MICROSOFT VISUAL STUDIO 14.0\VC\INCLUDE\VCRUNTIME_EXCEPTION.H
C:\PROGRAM FILES (X86)\MICROSOFT VISUAL STUDIO 14.0\VC\INCLUDE\EH.H
C:\PROGRAM FILES (X86)\WINDOWS KITS\10\INCLUDE\10.0.10150.0\UCRT\CORECRT_TERMINATE.H
C:\PROGRAM FILES (X86)\MICROSOFT VISUAL STUDIO 14.0\VC\INCLUDE\VCRUNTIME_NEW.H
C:\PROGRAM FILES (X86)\MICROSOFT VISUAL STUDIO 14.0\VC\INCLUDE\XUTILITY
C:\PROGRAM FILES (X86)\MICROSOFT VISUAL STUDIO 14.0\VC\INCLUDE\UTILITY
C:\PROGRAM FILES (X86)\MICROSOFT VISUAL STUDIO 14.0\VC\INCLUDE\IOSFWD
C:\PROGRAM FILES (X86)\MICROSOFT VISUAL STUDIO 14.0\VC\INCLUDE\CSTDIO
C:\PROGRAM FILES (X86)\WINDOWS KITS\10\INCLUDE\10.0.10150.0\UCRT\STDIO.H
C:\PROGRAM FILES (X86)\MICROSOFT VISUAL STUDIO 14.0\VC\INCLUDE\CSTRING
C:\PROGRAM FILES (X86)\WINDOWS KITS\10\INCLUDE\10.0.10150.0\UCRT\STRING.H
C:\PROGRAM FILES (X86)\WINDOWS KITS\10\INCLUDE\10.0.10150.0\UCRT\CORECRT_MEMORY.H
C:\PROGRAM FILES (X86)\WINDOWS KITS\10\INCLUDE\10.0.10150.0\UCRT\CRTDBG.H
C:\PROGRAM FILES (X86)\MICROSOFT VISUAL STUDIO 14.0\VC\INCLUDE\VCRUNTIME_NEW_DEBUG.H
C:\PROGRAM FILES (X86)\MICROSOFT VISUAL STUDIO 14.0\VC\INCLUDE\XATOMIC0.H
C:\PROGRAM FILES (X86)\MICROSOFT VISUAL STUDIO 14.0\VC\INCLUDE\STDEXCEPT
C:\PROGRAM FILES (X86)\MICROSOFT VISUAL STUDIO 14.0\VC\INCLUDE\XSTRING
E:\EYEGAME\GAMESENGINE\RESOURCEMANAGER.H
E:\EYEGAME\GAMESENGINE\TEXTURECACHE.H
C:\PROGRAM FILES (X86)\MICROSOFT VISUAL STUDIO 14.0\VC\INCLUDE\MAP
C:\PROGRAM FILES (X86)\MICROSOFT VISUAL STUDIO 14.0\VC\INCLUDE\TUPLE
C:\PROGRAM FILES (X86)\MICROSOFT VISUAL STUDIO 14.0\VC\INCLUDE\XTREE
E:\EYEGAME\GAMESENGINE\GLTEXTURE.H
C:\PROGRAM FILES (X86)\MICROSOFT VISUAL STUDIO 14.0\VC\INCLUDE\STRING
C:\PROGRAM FILES (X86)\MICROSOFT VISUAL STUDIO 14.0\VC\INCLUDE\ISTREAM
C:\PROGRAM FILES (X86)\MICROSOFT VISUAL STUDIO 14.0\VC\INCLUDE\OSTREAM
C:\PROGRAM FILES (X86)\MICROSOFT VISUAL STUDIO 14.0\VC\INCLUDE\IOS
C:\PROGRAM FILES (X86)\MICROSOFT VISUAL STUDIO 14.0\VC\INCLUDE\XLOCNUM
C:\PROGRAM FILES (X86)\MICROSOFT VISUAL STUDIO 14.0\VC\INCLUDE\STREAMBUF
C:\PROGRAM FILES (X86)\MICROSOFT VISUAL STUDIO 14.0\VC\INCLUDE\XIOSBASE
C:\PROGRAM FILES (X86)\MICROSOFT VISUAL STUDIO 14.0\VC\INCLUDE\XLOCALE
C:\PROGRAM FILES (X86)\MICROSOFT VISUAL STUDIO 14.0\VC\INCLUDE\TYPEINFO
C:\PROGRAM FILES (X86)\MICROSOFT VISUAL STUDIO 14.0\VC\INCLUDE\VCRUNTIME_TYPEINFO.H
C:\PROGRAM FILES (X86)\MICROSOFT VISUAL STUDIO 14.0\VC\INCLUDE\XLOCINFO
C:\PROGRAM FILES (X86)\MICROSOFT VISUAL STUDIO 14.0\VC\INCLUDE\XLOCINFO.H
C:\PROGRAM FILES (X86)\WINDOWS KITS\10\INCLUDE\10.0.10150.0\UCRT\CTYPE.H
C:\PROGRAM FILES (X86)\WINDOWS KITS\10\INCLUDE\10.0.10150.0\UCRT\LOCALE.H
C:\PROGRAM FILES (X86)\MICROSOFT VISUAL STUDIO 14.0\VC\INCLUDE\XFACET
C:\PROGRAM FILES (X86)\MICROSOFT VISUAL STUDIO 14.0\VC\INCLUDE\SYSTEM_ERROR
C:\PROGRAM FILES (X86)\MICROSOFT VISUAL STUDIO 14.0\VC\INCLUDE\CERRNO
C:\PROGRAM FILES (X86)\WINDOWS KITS\10\INCLUDE\10.0.10150.0\UCRT\SHARE.H
C:\PROGRAM FILES (X86)\MICROSOFT VISUAL STUDIO 14.0\VC\INCLUDE\IOSTREAM
C:\WINDOWS\GLOBALIZATION\SORTING\SORTDEFAULT.NLS
C:\PROGRAM FILES (X86)\MICROSOFT VISUAL STUDIO 14.0\VC\BIN\1033\CLUI.DLL
C:\WINDOWS\SYSTEM32\RSAENH.DLL
C:\PROGRAM FILES (X86)\MICROSOFT VISUAL STUDIO 14.0\VC\BIN\MSPDBSRV.EXE
C:\WINDOWS\SYSTEM32\TZRES.DLL
^E:\EYEGAME\EYEGAME\GAMEITEM.CPP
E:\EYEGAME\EYEGAME\GAMEITEM.H
E:\EYEGAME\EYEGAME\GAMEOBJECT.H
E:\EYEGAME\GAMESENGINE\SPRITEBATCH.H
E:\EYEGAME\DEPENDENCIES\INCLUDE\GL\GLEW.H
C:\PROGRAM FILES (X86)\WINDOWS KITS\8.1\INCLUDE\UM\GL\GLU.H
C:\PROGRAM FILES (X86)\WINDOWS KITS\8.1\INCLUDE\SHARED\WINAPIFAMILY.H
C:\PROGRAM FILES (X86)\WINDOWS KITS\8.1\INCLUDE\UM\GL\GL.H
E:\EYEGAME\GAMESENGINE\VERTEX.H
E:\EYEGAME\DEPENDENCIES\INCLUDE\GLM\GLM.HPP
E:\EYEGAME\DEPENDENCIES\INCLUDE\GLM\DETAIL\_FIXES.HPP
C:\PROGRAM FILES (X86)\MICROSOFT VISUAL STUDIO 14.0\VC\INCLUDE\CMATH
C:\PROGRAM FILES (X86)\MICROSOFT VISUAL STUDIO 14.0\VC\INCLUDE\YVALS.H
C:\PROGRAM FILES (X86)\MICROSOFT VISUAL STUDIO 14.0\VC\INCLUDE\XKEYCHECK.H
C:\PROGRAM FILES (X86)\MICROSOFT VISUAL STUDIO 14.0\VC\INCLUDE\CRTDEFS.H
C:\PROGRAM FILES (X86)\MICROSOFT VISUAL STUDIO 14.0\VC\INCLUDE\VCRUNTIME.H
C:\PROGRAM FILES (X86)\MICROSOFT VISUAL STUDIO 14.0\VC\INCLUDE\SAL.H
C:\PROGRAM FILES (X86)\MICROSOFT VISUAL STUDIO 14.0\VC\INCLUDE\CONCURRENCYSAL.H
C:\PROGRAM FILES (X86)\MICROSOFT VISUAL STUDIO 14.0\VC\INCLUDE\VADEFS.H
C:\PROGRAM FILES (X86)\WINDOWS KITS\10\INCLUDE\10.0.10150.0\UCRT\CORECRT.H
C:\PROGRAM FILES (X86)\MICROSOFT VISUAL STUDIO 14.0\VC\INCLUDE\USE_ANSI.H
C:\PROGRAM FILES (X86)\WINDOWS KITS\10\INCLUDE\10.0.10150.0\UCRT\MATH.H
C:\PROGRAM FILES (X86)\MICROSOFT VISUAL STUDIO 14.0\VC\INCLUDE\XTGMATH.H
C:\PROGRAM FILES (X86)\MICROSOFT VISUAL STUDIO 14.0\VC\INCLUDE\XTR1COMMON
C:\PROGRAM FILES (X86)\MICROSOFT VISUAL STUDIO 14.0\VC\INCLUDE\CSTDLIB
C:\PROGRAM FILES (X86)\WINDOWS KITS\10\INCLUDE\10.0.10150.0\UCRT\STDLIB.H
C:\PROGRAM FILES (X86)\WINDOWS KITS\10\INCLUDE\10.0.10150.0\UCRT\CORECRT_MALLOC.H
C:\PROGRAM FILES (X86)\WINDOWS KITS\10\INCLUDE\10.0.10150.0\UCRT\CORECRT_SEARCH.H
C:\PROGRAM FILES (X86)\WINDOWS KITS\10\INCLUDE\10.0.10150.0\UCRT\STDDEF.H
C:\PROGRAM FILES (X86)\WINDOWS KITS\10\INCLUDE\10.0.10150.0\UCRT\CORECRT_WSTDLIB.H
C:\PROGRAM FILES (X86)\MICROSOFT VISUAL STUDIO 14.0\VC\INCLUDE\LIMITS.H
C:\PROGRAM FILES (X86)\MICROSOFT VISUAL STUDIO 14.0\VC\INCLUDE\CLIMITS
C:\PROGRAM FILES (X86)\MICROSOFT VISUAL STUDIO 14.0\VC\INCLUDE\CFLOAT
C:\PROGRAM FILES (X86)\WINDOWS KITS\10\INCLUDE\10.0.10150.0\UCRT\FLOAT.H
C:\PROGRAM FILES (X86)\MICROSOFT VISUAL STUDIO 14.0\VC\INCLUDE\LIMITS
C:\PROGRAM FILES (X86)\MICROSOFT VISUAL STUDIO 14.0\VC\INCLUDE\YMATH.H
C:\PROGRAM FILES (X86)\MICROSOFT VISUAL STUDIO 14.0\VC\INCLUDE\CWCHAR
C:\PROGRAM FILES (X86)\WINDOWS KITS\10\INCLUDE\10.0.10150.0\UCRT\WCHAR.H
C:\PROGRAM FILES (X86)\WINDOWS KITS\10\INCLUDE\10.0.10150.0\UCRT\CORECRT_MEMCPY_S.H
C:\PROGRAM FILES (X86)\WINDOWS KITS\10\INCLUDE\10.0.10150.0\UCRT\ERRNO.H
C:\PROGRAM FILES (X86)\MICROSOFT VISUAL STUDIO 14.0\VC\INCLUDE\VCRUNTIME_STRING.H
C:\PROGRAM FILES (X86)\WINDOWS KITS\10\INCLUDE\10.0.10150.0\UCRT\CORECRT_WCONIO.H
C:\PROGRAM FILES (X86)\WINDOWS KITS\10\INCLUDE\10.0.10150.0\UCRT\CORECRT_STDIO_CONFIG.H
C:\PROGRAM FILES (X86)\WINDOWS KITS\10\INCLUDE\10.0.10150.0\UCRT\CORECRT_WCTYPE.H
C:\PROGRAM FILES (X86)\WINDOWS KITS\10\INCLUDE\10.0.10150.0\UCRT\CORECRT_WDIRECT.H
C:\PROGRAM FILES (X86)\WINDOWS KITS\10\INCLUDE\10.0.10150.0\UCRT\CORECRT_WIO.H
C:\PROGRAM FILES (X86)\WINDOWS KITS\10\INCLUDE\10.0.10150.0\UCRT\CORECRT_SHARE.H
C:\PROGRAM FILES (X86)\WINDOWS KITS\10\INCLUDE\10.0.10150.0\UCRT\CORECRT_WPROCESS.H
C:\PROGRAM FILES (X86)\WINDOWS KITS\10\INCLUDE\10.0.10150.0\UCRT\CORECRT_WSTDIO.H
C:\PROGRAM FILES (X86)\WINDOWS KITS\10\INCLUDE\10.0.10150.0\UCRT\CORECRT_WSTRING.H
C:\PROGRAM FILES (X86)\WINDOWS KITS\10\INCLUDE\10.0.10150.0\UCRT\CORECRT_WTIME.H
C:\PROGRAM FILES (X86)\WINDOWS KITS\10\INCLUDE\10.0.10150.0\UCRT\SYS\STAT.H
C:\PROGRAM FILES (X86)\WINDOWS KITS\10\INCLUDE\10.0.10150.0\UCRT\SYS\TYPES.H
C:\PROGRAM FILES (X86)\MICROSOFT VISUAL STUDIO 14.0\VC\INCLUDE\XSTDDEF
C:\PROGRAM FILES (X86)\MICROSOFT VISUAL STUDIO 14.0\VC\INCLUDE\CSTDDEF
C:\PROGRAM FILES (X86)\MICROSOFT VISUAL STUDIO 14.0\VC\INCLUDE\INITIALIZER_LIST
C:\PROGRAM FILES (X86)\MICROSOFT VISUAL STUDIO 14.0\VC\INCLUDE\CASSERT
C:\PROGRAM FILES (X86)\WINDOWS KITS\10\INCLUDE\10.0.10150.0\UCRT\ASSERT.H
E:\EYEGAME\DEPENDENCIES\INCLUDE\GLM\FWD.HPP
E:\EYEGAME\DEPENDENCIES\INCLUDE\GLM\DETAIL\TYPE_INT.HPP
E:\EYEGAME\DEPENDENCIES\INCLUDE\GLM\DETAIL\SETUP.HPP
C:\PROGRAM FILES (X86)\MICROSOFT VISUAL STUDIO 14.0\VC\INCLUDE\EMMINTRIN.H
C:\PROGRAM FILES (X86)\MICROSOFT VISUAL STUDIO 14.0\VC\INCLUDE\XMMINTRIN.H
C:\PROGRAM FILES (X86)\MICROSOFT VISUAL STUDIO 14.0\VC\INCLUDE\MMINTRIN.H
C:\PROGRAM FILES (X86)\WINDOWS KITS\10\INCLUDE\10.0.10150.0\UCRT\MALLOC.H
C:\PROGRAM FILES (X86)\MICROSOFT VISUAL STUDIO 14.0\VC\INCLUDE\TYPE_TRAITS
C:\PROGRAM FILES (X86)\MICROSOFT VISUAL STUDIO 14.0\VC\INCLUDE\CSTDINT
C:\PROGRAM FILES (X86)\MICROSOFT VISUAL STUDIO 14.0\VC\INCLUDE\STDINT.H
E:\EYEGAME\DEPENDENCIES\INCLUDE\GLM\DETAIL\TYPE_FLOAT.HPP
E:\EYEGAME\DEPENDENCIES\INCLUDE\GLM\DETAIL\TYPE_VEC.HPP
E:\EYEGAME\DEPENDENCIES\INCLUDE\GLM\DETAIL\PRECISION.HPP
E:\EYEGAME\DEPENDENCIES\INCLUDE\GLM\DETAIL\TYPE_MAT.HPP
E:\EYEGAME\DEPENDENCIES\INCLUDE\GLM\VEC2.HPP
E:\EYEGAME\DEPENDENCIES\INCLUDE\GLM\DETAIL\TYPE_VEC2.HPP
E:\EYEGAME\DEPENDENCIES\INCLUDE\GLM\DETAIL\TYPE_VEC2.INL
E:\EYEGAME\DEPENDENCIES\INCLUDE\GLM\VEC3.HPP
E:\EYEGAME\DEPENDENCIES\INCLUDE\GLM\DETAIL\TYPE_VEC3.HPP
E:\EYEGAME\DEPENDENCIES\INCLUDE\GLM\DETAIL\TYPE_VEC3.INL
E:\EYEGAME\DEPENDENCIES\INCLUDE\GLM\VEC4.HPP
E:\EYEGAME\DEPENDENCIES\INCLUDE\GLM\DETAIL\TYPE_VEC4.HPP
E:\EYEGAME\DEPENDENCIES\INCLUDE\GLM\DETAIL\TYPE_VEC4.INL
E:\EYEGAME\DEPENDENCIES\INCLUDE\GLM\DETAIL\TYPE_VEC4_SSE2.INL
E:\EYEGAME\DEPENDENCIES\INCLUDE\GLM\MAT2X2.HPP
E:\EYEGAME\DEPENDENCIES\INCLUDE\GLM\DETAIL\TYPE_MAT2X2.HPP
E:\EYEGAME\DEPENDENCIES\INCLUDE\GLM\DETAIL\TYPE_MAT2X2.INL
E:\EYEGAME\DEPENDENCIES\INCLUDE\GLM\MAT2X3.HPP
E:\EYEGAME\DEPENDENCIES\INCLUDE\GLM\DETAIL\TYPE_MAT2X3.HPP
E:\EYEGAME\DEPENDENCIES\INCLUDE\GLM\DETAIL\TYPE_MAT2X3.INL
E:\EYEGAME\DEPENDENCIES\INCLUDE\GLM\MAT2X4.HPP
E:\EYEGAME\DEPENDENCIES\INCLUDE\GLM\DETAIL\TYPE_MAT2X4.HPP
E:\EYEGAME\DEPENDENCIES\INCLUDE\GLM\DETAIL\TYPE_MAT2X4.INL
E:\EYEGAME\DEPENDENCIES\INCLUDE\GLM\MAT3X2.HPP
E:\EYEGAME\DEPENDENCIES\INCLUDE\GLM\DETAIL\TYPE_MAT3X2.HPP
E:\EYEGAME\DEPENDENCIES\INCLUDE\GLM\DETAIL\TYPE_MAT3X2.INL
E:\EYEGAME\DEPENDENCIES\INCLUDE\GLM\MAT3X3.HPP
E:\EYEGAME\DEPENDENCIES\INCLUDE\GLM\DETAIL\TYPE_MAT3X3.HPP
E:\EYEGAME\DEPENDENCIES\INCLUDE\GLM\DETAIL\TYPE_MAT3X3.INL
E:\EYEGAME\DEPENDENCIES\INCLUDE\GLM\MAT3X4.HPP
E:\EYEGAME\DEPENDENCIES\INCLUDE\GLM\DETAIL\TYPE_MAT3X4.HPP
E:\EYEGAME\DEPENDENCIES\INCLUDE\GLM\DETAIL\TYPE_MAT3X4.INL
E:\EYEGAME\DEPENDENCIES\INCLUDE\GLM\MAT4X2.HPP
E:\EYEGAME\DEPENDENCIES\INCLUDE\GLM\DETAIL\TYPE_MAT4X2.HPP
E:\EYEGAME\DEPENDENCIES\INCLUDE\GLM\DETAIL\TYPE_MAT4X2.INL
E:\EYEGAME\DEPENDENCIES\INCLUDE\GLM\MAT4X3.HPP
E:\EYEGAME\DEPENDENCIES\INCLUDE\GLM\DETAIL\TYPE_MAT4X3.HPP
E:\EYEGAME\DEPENDENCIES\INCLUDE\GLM\DETAIL\TYPE_MAT4X3.INL
E:\EYEGAME\DEPENDENCIES\INCLUDE\GLM\MAT4X4.HPP
E:\EYEGAME\DEPENDENCIES\INCLUDE\GLM\DETAIL\TYPE_MAT4X4.HPP
E:\EYEGAME\DEPENDENCIES\INCLUDE\GLM\DETAIL\TYPE_MAT4X4.INL
E:\EYEGAME\DEPENDENCIES\INCLUDE\GLM\TRIGONOMETRIC.HPP
E:\EYEGAME\DEPENDENCIES\INCLUDE\GLM\DETAIL\FUNC_TRIGONOMETRIC.HPP
E:\EYEGAME\DEPENDENCIES\INCLUDE\GLM\DETAIL\FUNC_TRIGONOMETRIC.INL
E:\EYEGAME\DEPENDENCIES\INCLUDE\GLM\DETAIL\_VECTORIZE.HPP
E:\EYEGAME\DEPENDENCIES\INCLUDE\GLM\DETAIL\TYPE_VEC1.HPP
E:\EYEGAME\DEPENDENCIES\INCLUDE\GLM\DETAIL\TYPE_VEC1.INL
E:\EYEGAME\DEPENDENCIES\INCLUDE\GLM\EXPONENTIAL.HPP
E:\EYEGAME\DEPENDENCIES\INCLUDE\GLM\DETAIL\FUNC_EXPONENTIAL.HPP
E:\EYEGAME\DEPENDENCIES\INCLUDE\GLM\DETAIL\FUNC_EXPONENTIAL.INL
E:\EYEGAME\DEPENDENCIES\INCLUDE\GLM\DETAIL\FUNC_VECTOR_RELATIONAL.HPP
E:\EYEGAME\DEPENDENCIES\INCLUDE\GLM\DETAIL\FUNC_VECTOR_RELATIONAL.INL
E:\EYEGAME\DEPENDENCIES\INCLUDE\GLM\COMMON.HPP
E:\EYEGAME\DEPENDENCIES\INCLUDE\GLM\DETAIL\FUNC_COMMON.HPP
E:\EYEGAME\DEPENDENCIES\INCLUDE\GLM\DETAIL\FUNC_COMMON.INL
E:\EYEGAME\DEPENDENCIES\INCLUDE\GLM\PACKING.HPP
E:\EYEGAME\DEPENDENCIES\INCLUDE\GLM\DETAIL\FUNC_PACKING.HPP
E:\EYEGAME\DEPENDENCIES\INCLUDE\GLM\DETAIL\FUNC_PACKING.INL
E:\EYEGAME\DEPENDENCIES\INCLUDE\GLM\DETAIL\TYPE_HALF.HPP
E:\EYEGAME\DEPENDENCIES\INCLUDE\GLM\DETAIL\TYPE_HALF.INL
E:\EYEGAME\DEPENDENCIES\INCLUDE\GLM\GEOMETRIC.HPP
E:\EYEGAME\DEPENDENCIES\INCLUDE\GLM\DETAIL\FUNC_GEOMETRIC.HPP
E:\EYEGAME\DEPENDENCIES\INCLUDE\GLM\DETAIL\FUNC_GEOMETRIC.INL
E:\EYEGAME\DEPENDENCIES\INCLUDE\GLM\MATRIX.HPP
E:\EYEGAME\DEPENDENCIES\INCLUDE\GLM\DETAIL\FUNC_MATRIX.HPP
E:\EYEGAME\DEPENDENCIES\INCLUDE\GLM\DETAIL\FUNC_MATRIX.INL
E:\EYEGAME\DEPENDENCIES\INCLUDE\GLM\VECTOR_RELATIONAL.HPP
E:\EYEGAME\DEPENDENCIES\INCLUDE\GLM\INTEGER.HPP
E:\EYEGAME\DEPENDENCIES\INCLUDE\GLM\DETAIL\FUNC_INTEGER.HPP
E:\EYEGAME\DEPENDENCIES\INCLUDE\GLM\DETAIL\FUNC_INTEGER.INL
C:\PROGRAM FILES (X86)\MICROSOFT VISUAL STUDIO 14.0\VC\INCLUDE\INTRIN.H
C:\PROGRAM FILES (X86)\MICROSOFT VISUAL STUDIO 14.0\VC\INCLUDE\SETJMP.H
C:\PROGRAM FILES (X86)\MICROSOFT VISUAL STUDIO 14.0\VC\INCLUDE\IMMINTRIN.H
C:\PROGRAM FILES (X86)\MICROSOFT VISUAL STUDIO 14.0\VC\INCLUDE\WMMINTRIN.H
C:\PROGRAM FILES (X86)\MICROSOFT VISUAL STUDIO 14.0\VC\INCLUDE\NMMINTRIN.H
C:\PROGRAM FILES (X86)\MICROSOFT VISUAL STUDIO 14.0\VC\INCLUDE\SMMINTRIN.H
C:\PROGRAM FILES (X86)\MICROSOFT VISUAL STUDIO 14.0\VC\INCLUDE\TMMINTRIN.H
C:\PROGRAM FILES (X86)\MICROSOFT VISUAL STUDIO 14.0\VC\INCLUDE\PMMINTRIN.H
C:\PROGRAM FILES (X86)\MICROSOFT VISUAL STUDIO 14.0\VC\INCLUDE\AMMINTRIN.H
C:\PROGRAM FILES (X86)\MICROSOFT VISUAL STUDIO 14.0\VC\INCLUDE\MM3DNOW.H
C:\PROGRAM FILES (X86)\MICROSOFT VISUAL STUDIO 14.0\VC\INCLUDE\VECTOR
C:\PROGRAM FILES (X86)\MICROSOFT VISUAL STUDIO 14.0\VC\INCLUDE\XMEMORY
C:\PROGRAM FILES (X86)\MICROSOFT VISUAL STUDIO 14.0\VC\INCLUDE\XMEMORY0
C:\PROGRAM FILES (X86)\MICROSOFT VISUAL STUDIO 14.0\VC\INCLUDE\NEW
C:\PROGRAM FILES (X86)\MICROSOFT VISUAL STUDIO 14.0\VC\INCLUDE\EXCEPTION
C:\PROGRAM FILES (X86)\MICROSOFT VISUAL STUDIO 14.0\VC\INCLUDE\VCRUNTIME_EXCEPTION.H
C:\PROGRAM FILES (X86)\MICROSOFT VISUAL STUDIO 14.0\VC\INCLUDE\EH.H
C:\PROGRAM FILES (X86)\WINDOWS KITS\10\INCLUDE\10.0.10150.0\UCRT\CORECRT_TERMINATE.H
C:\PROGRAM FILES (X86)\MICROSOFT VISUAL STUDIO 14.0\VC\INCLUDE\VCRUNTIME_NEW.H
C:\PROGRAM FILES (X86)\MICROSOFT VISUAL STUDIO 14.0\VC\INCLUDE\XUTILITY
C:\PROGRAM FILES (X86)\MICROSOFT VISUAL STUDIO 14.0\VC\INCLUDE\UTILITY
C:\PROGRAM FILES (X86)\MICROSOFT VISUAL STUDIO 14.0\VC\INCLUDE\IOSFWD
C:\PROGRAM FILES (X86)\MICROSOFT VISUAL STUDIO 14.0\VC\INCLUDE\CSTDIO
C:\PROGRAM FILES (X86)\WINDOWS KITS\10\INCLUDE\10.0.10150.0\UCRT\STDIO.H
C:\PROGRAM FILES (X86)\MICROSOFT VISUAL STUDIO 14.0\VC\INCLUDE\CSTRING
C:\PROGRAM FILES (X86)\WINDOWS KITS\10\INCLUDE\10.0.10150.0\UCRT\STRING.H
C:\PROGRAM FILES (X86)\WINDOWS KITS\10\INCLUDE\10.0.10150.0\UCRT\CORECRT_MEMORY.H
C:\PROGRAM FILES (X86)\WINDOWS KITS\10\INCLUDE\10.0.10150.0\UCRT\CRTDBG.H
C:\PROGRAM FILES (X86)\MICROSOFT VISUAL STUDIO 14.0\VC\INCLUDE\VCRUNTIME_NEW_DEBUG.H
C:\PROGRAM FILES (X86)\MICROSOFT VISUAL STUDIO 14.0\VC\INCLUDE\XATOMIC0.H
C:\PROGRAM FILES (X86)\MICROSOFT VISUAL STUDIO 14.0\VC\INCLUDE\STDEXCEPT
C:\PROGRAM FILES (X86)\MICROSOFT VISUAL STUDIO 14.0\VC\INCLUDE\XSTRING
E:\EYEGAME\GAMESENGINE\RESOURCEMANAGER.H
E:\EYEGAME\GAMESENGINE\TEXTURECACHE.H
C:\PROGRAM FILES (X86)\MICROSOFT VISUAL STUDIO 14.0\VC\INCLUDE\MAP
C:\PROGRAM FILES (X86)\MICROSOFT VISUAL STUDIO 14.0\VC\INCLUDE\TUPLE
C:\PROGRAM FILES (X86)\MICROSOFT VISUAL STUDIO 14.0\VC\INCLUDE\XTREE
E:\EYEGAME\GAMESENGINE\GLTEXTURE.H
C:\PROGRAM FILES (X86)\MICROSOFT VISUAL STUDIO 14.0\VC\INCLUDE\STRING
C:\PROGRAM FILES (X86)\MICROSOFT VISUAL STUDIO 14.0\VC\INCLUDE\ISTREAM
C:\PROGRAM FILES (X86)\MICROSOFT VISUAL STUDIO 14.0\VC\INCLUDE\OSTREAM
C:\PROGRAM FILES (X86)\MICROSOFT VISUAL STUDIO 14.0\VC\INCLUDE\IOS
C:\PROGRAM FILES (X86)\MICROSOFT VISUAL STUDIO 14.0\VC\INCLUDE\XLOCNUM
C:\PROGRAM FILES (X86)\MICROSOFT VISUAL STUDIO 14.0\VC\INCLUDE\STREAMBUF
C:\PROGRAM FILES (X86)\MICROSOFT VISUAL STUDIO 14.0\VC\INCLUDE\XIOSBASE
C:\PROGRAM FILES (X86)\MICROSOFT VISUAL STUDIO 14.0\VC\INCLUDE\XLOCALE
C:\PROGRAM FILES (X86)\MICROSOFT VISUAL STUDIO 14.0\VC\INCLUDE\TYPEINFO
C:\PROGRAM FILES (X86)\MICROSOFT VISUAL STUDIO 14.0\VC\INCLUDE\VCRUNTIME_TYPEINFO.H
C:\PROGRAM FILES (X86)\MICROSOFT VISUAL STUDIO 14.0\VC\INCLUDE\XLOCINFO
C:\PROGRAM FILES (X86)\MICROSOFT VISUAL STUDIO 14.0\VC\INCLUDE\XLOCINFO.H
C:\PROGRAM FILES (X86)\WINDOWS KITS\10\INCLUDE\10.0.10150.0\UCRT\CTYPE.H
C:\PROGRAM FILES (X86)\WINDOWS KITS\10\INCLUDE\10.0.10150.0\UCRT\LOCALE.H
C:\PROGRAM FILES (X86)\MICROSOFT VISUAL STUDIO 14.0\VC\INCLUDE\XFACET
C:\PROGRAM FILES (X86)\MICROSOFT VISUAL STUDIO 14.0\VC\INCLUDE\SYSTEM_ERROR
C:\PROGRAM FILES (X86)\MICROSOFT VISUAL STUDIO 14.0\VC\INCLUDE\CERRNO
C:\PROGRAM FILES (X86)\WINDOWS KITS\10\INCLUDE\10.0.10150.0\UCRT\SHARE.H
C:\PROGRAM FILES (X86)\MICROSOFT VISUAL STUDIO 14.0\VC\INCLUDE\RANDOM
C:\PROGRAM FILES (X86)\MICROSOFT VISUAL STUDIO 14.0\VC\INCLUDE\CTIME
C:\PROGRAM FILES (X86)\WINDOWS KITS\10\INCLUDE\10.0.10150.0\UCRT\TIME.H
